<?xml version="1.0" standalone="no"?>
<!DOCTYPE svg PUBLIC "-//W3C//DTD SVG 1.1//EN" "http://www.w3.org/Graphics/SVG/1.1/DTD/svg11.dtd" >
<svg>
<metadata>
Created by FontForge 20090622 at Thu Feb 25 19:22:33 2016
 By deploy user
(c) Copyright SoftUnion, 1993 Created by N.Vsesvetskii
</metadata>
<defs>
<font id="Time-Roman" horiz-adv-x="510" >
  <font-face 
    font-family="Time Roman"
    font-weight="400"
    font-stretch="normal"
    units-per-em="1000"
    panose-1="0 0 0 0 0 0 0 0 0 0"
    ascent="800"
    descent="-200"
    x-height="459"
    cap-height="680"
    bbox="-63 -231 1148 882"
    underline-thickness="50"
    underline-position="-75"
    unicode-range="U+0020-U+2122"
  />
<missing-glyph horiz-adv-x="769" 
d="M48 0v769h673v-769h-673zM673 48v673h-577v-673h577z" />
    <glyph glyph-name=".notdef" horiz-adv-x="769" 
d="M48 0v769h673v-769h-673zM673 48v673h-577v-673h577z" />
    <glyph glyph-name=".null" horiz-adv-x="0" 
 />
    <glyph glyph-name="nonmarkingreturn" horiz-adv-x="254" 
 />
    <glyph glyph-name="space" unicode=" " horiz-adv-x="254" 
 />
    <glyph glyph-name="exclam" unicode="!" horiz-adv-x="193" 
d="M114 174h-32q0 65 -11 146l-22 164t-11 131q0 36 18 58.5t42 22.5q27 0 43.5 -21.5t16.5 -59.5q0 -42 -30 -268q-14 -105 -14 -173zM98 92q24 0 40 -15t16 -39q0 -23 -16.5 -38.5t-39.5 -15.5q-24 0 -40 15t-16 39q0 23 16.5 38.5t39.5 15.5z" />
    <glyph glyph-name="quotedbl" unicode="&#x22;" horiz-adv-x="329" 
d="M90 404h-24q-4 35 -25 126q-15 67 -15 114q0 22 15 37t37 15t37 -15t15 -37q0 -47 -15 -113q-21 -90 -25 -127zM259 404h-24q-4 35 -25 126q-15 67 -15 114q0 22 15 37t37 15t37 -15t15 -37q0 -47 -15 -113q-21 -90 -25 -127z" />
    <glyph glyph-name="numbersign" unicode="#" horiz-adv-x="503" 
d="M0 442h140l51 238h52l-51 -238h170l51 238h51l-50 -238h89v-38h-97l-36 -169h133v-38h-141l-48 -222h-52l48 222h-170l-48 -222h-52l49 222l-89 -1v39h96l36 169h-132v38zM184 404l-36 -169h170l36 169h-170z" />
    <glyph glyph-name="dollar" unicode="$" horiz-adv-x="495" 
d="M224 23v284q-89 49 -128 90q-56 58 -56 132q0 67 54 117t130 50v48h40v-48q38 0 68 -8t107 -40v-150h-20q-10 86 -51 121q-32 28 -104 38v-258q90 -48 136 -93q64 -62 64 -134q0 -77 -55.5 -132.5t-144.5 -55.5v-46h-40v46q-105 0 -184 46v138h24q10 -77 47 -111t113 -34
zM264 282v-259q48 8 80 43.5t32 78.5q0 40 -30.5 75t-81.5 62zM224 425v232q-42 -6 -69 -36t-27 -68q0 -37 26.5 -70.5t69.5 -57.5z" />
    <glyph glyph-name="percent" unicode="%" horiz-adv-x="848" 
d="M174 696q67 0 107 -59q36 -53 36 -129q0 -74 -36 -125q-40 -56 -108 -56q-66 0 -104.5 54t-38.5 127q0 74 37 128q41 60 107 60zM175 670q-45 0 -60 -90q-6 -37 -6 -72q0 -58 9 -93q16 -62 55 -62q38 0 54 61q11 41 11 94q0 56 -10 97q-16 65 -53 65zM675 353
q67 0 107 -59q36 -53 36 -129q0 -74 -36 -125q-40 -56 -108 -56q-66 0 -104.5 54t-38.5 127q0 74 37 128q41 60 107 60zM676 327q-45 0 -60 -90q-6 -37 -6 -72q0 -58 9 -93q16 -62 55 -62q38 0 54 61q11 41 11 94q0 56 -10 97q-16 65 -53 65zM691 696l-488 -712h-45l488 712
h45z" />
    <glyph glyph-name="ampersand" unicode="&#x26;" horiz-adv-x="814" 
d="M539 406l1 18h214v-18q-37 0 -65 -26q-10 -10 -70 -105l-43 -64q-27 -39 -49 -64q41 -42 75.5 -64t63.5 -22q41 0 67 15t43 53l19 -7q-13 -65 -58.5 -101.5t-111.5 -36.5q-40 0 -85 23.5t-89 64.5q-51 -40 -112 -64t-125 -24q-92 0 -135.5 39.5t-43.5 108.5q0 85 64 148
q45 44 142 92q-20 44 -33 84t-13 63q0 73 44 122q49 55 133 55q68 0 113.5 -38.5t45.5 -103.5q0 -59 -57 -103q-33 -26 -125 -69q52 -97 146 -199q40 47 67 98q24 45 24 65q0 32 -8 46t-39 14zM259 338q-55 -32 -86 -71q-34 -43 -34 -90q0 -58 35 -95t94 -37q38 0 74.5 17
t72.5 45q-42 46 -85 111q-34 52 -71 120zM333 413q62 31 90 60q36 37 36 84q0 49 -23 77t-58 28q-36 0 -61.5 -34t-25.5 -74q0 -31 10.5 -67t31.5 -74z" />
    <glyph glyph-name="quotesingle" unicode="'" horiz-adv-x="168" 
d="M96 404h-24q-4 35 -25 126q-15 67 -15 114q0 22 15 37t37 15t37 -15t15 -37q0 -47 -15 -113q-21 -90 -25 -127z" />
    <glyph glyph-name="parenleft" unicode="(" horiz-adv-x="329" 
d="M327 -194v-18q-131 47 -213.5 174.5t-82.5 276.5t83 279.5t213 177.5v-18q-103 -69 -151 -193q-41 -106 -41 -246q0 -146 36 -242q46 -123 156 -191z" />
    <glyph glyph-name="parenright" unicode=")" horiz-adv-x="372" 
d="M46 -212v18q110 68 156 191q36 96 36 242q0 142 -40 246q-48 123 -152 193v18q130 -47 213 -177t83 -280q0 -148 -83 -276t-213 -175z" />
    <glyph glyph-name="asterisk" unicode="*" horiz-adv-x="498" 
d="M242 507q0 21 -10 54q-22 72 -22 84q0 22 11.5 36.5t28.5 14.5t28.5 -14.5t11.5 -36.5q0 -14 -21 -83q-11 -36 -11 -55q17 10 66 64q22 24 37 33t30 9q22 0 33 -18q4 -7 4 -17q0 -27 -28 -43l-134 -42q15 -9 51 -17q73 -17 84 -23q28 -17 28 -44q0 -9 -5 -17
q-9 -17 -33 -17q-17 0 -29 7t-61 61q-24 26 -43 37q0 -21 10 -54q22 -73 22 -84q0 -22 -11.5 -36.5t-28.5 -14.5t-28.5 14.5t-11.5 36.5q0 14 21 83q11 36 11 55l-104 -97q-15 -9 -30 -9q-24 0 -33 17q-4 7 -4 17q0 28 28 44q13 7 64 18t72 23q-17 10 -51 18q-76 18 -85 23
q-29 19 -29 45q0 8 5 16q11 18 34 18q14 0 30 -8z" />
    <glyph glyph-name="plus" unicode="+" horiz-adv-x="600" 
d="M278 401v226h44v-226h236v-42h-236v-226h-44v226h-236v42h236z" />
    <glyph glyph-name="comma" unicode="," horiz-adv-x="270" 
d="M65 -168v24q48 13 80 46t32 70q0 28 -16 28q-7 0 -19 -8t-27 -8q-21 0 -35.5 16.5t-14.5 41.5q0 26 20 44t50 18q38 0 64 -31t26 -76q0 -69 -47 -117t-113 -48z" />
    <glyph glyph-name="hyphen" unicode="-" horiz-adv-x="290" 
d="M20 275h250v-60h-250v60z" />
    <glyph glyph-name="period" unicode="." horiz-adv-x="270" 
d="M121 92q24 0 40 -15t16 -39q0 -23 -16.5 -38.5t-39.5 -15.5q-24 0 -40 15t-16 39q0 23 16.5 38.5t39.5 15.5z" />
    <glyph glyph-name="slash" unicode="/" horiz-adv-x="275" 
d="M0 -16l228 712h47l-228 -712h-47z" />
    <glyph glyph-name="zero" unicode="0" 
d="M255 -16q-102 0 -165 100.5t-63 259.5q0 148 63.5 250t164.5 102q100 0 164 -102t64 -250q0 -160 -62.5 -260t-165.5 -100zM255 18q60 0 92 94.5t32 231.5q0 138 -30 223q-34 95 -94 95t-92 -91t-32 -227q0 -139 30 -227q34 -99 94 -99z" />
    <glyph glyph-name="one" unicode="1" 
d="M403 0h-280v18q52 0 74 20t22 69v392q0 55 -8 78t-36 23q-10 0 -24 -3t-36 -10v19l178 90h14v-589q0 -40 25 -64.5t71 -24.5v-18z" />
    <glyph glyph-name="two" unicode="2" 
d="M439 0h-406v18l215 222q49 53 75.5 105.5t26.5 113.5q0 65 -34 109q-37 48 -100 48q-52 0 -96.5 -36t-51.5 -87h-18q0 82 60.5 142.5t137.5 60.5q92 0 145 -56q49 -52 49 -131q0 -72 -49 -152q-37 -60 -112 -138l-137 -142h208q37 0 62 10q33 13 49 44h24z" />
    <glyph glyph-name="three" unicode="3" 
d="M158 336v18q72 8 115.5 51.5t43.5 110.5q0 46 -31 77t-80 31q-35 0 -73 -25t-57 -60l-18 8q22 66 66 105q50 44 118 44t115.5 -41.5t47.5 -102.5q0 -32 -27.5 -75t-66.5 -73q54 -17 91 -69.5t37 -110.5q0 -116 -81 -180q-76 -60 -200 -60q-51 0 -79.5 15t-28.5 41
q0 20 15.5 29t34.5 9q34 0 67 -24t63 -24q63 0 98 40.5t35 100.5q0 74 -50 118q-54 47 -155 47z" />
    <glyph glyph-name="four" unicode="4" 
d="M311 0v176h-295v62l324 458h59v-446h88v-74h-88v-176h-88zM311 585l-234 -335h234v335z" />
    <glyph glyph-name="five" unicode="5" 
d="M457 680l-39 -84h-200l-46 -92q116 0 200 -76t84 -190q0 -105 -80.5 -179.5t-194.5 -74.5q-51 0 -83.5 19.5t-32.5 48.5q0 17 12.5 26.5t30.5 9.5q22 0 45 -15q53 -35 87 -35q61 0 104 49t43 119q0 94 -83 151t-223 57l133 266h243z" />
    <glyph glyph-name="six" unicode="6" 
d="M457 696v-18q-109 -10 -195.5 -97.5t-111.5 -206.5q33 26 65 39q38 16 82 16q75 0 127.5 -59.5t52.5 -144.5q0 -100 -64.5 -170.5t-155.5 -70.5q-95 0 -157.5 78.5t-62.5 192.5q0 185 114 310q119 131 306 131zM149 344q-8 -48 -8 -93q0 -100 31 -163q35 -70 98 -70
q46 0 78.5 47.5t32.5 113.5q0 86 -38 146t-93 60q-23 0 -51 -11t-50 -30z" />
    <glyph glyph-name="seven" unicode="7" 
d="M464 680v-18l-226 -678h-60l204 612h-188q-96 0 -143 -85l-20 6l60 163h373z" />
    <glyph glyph-name="eight" unicode="8" 
d="M247 696q84 0 138.5 -43.5t54.5 -109.5q0 -42 -44 -92t-99 -73q74 -47 119 -112q40 -58 40 -102q0 -74 -58 -127t-140 -53q-86 0 -142 48t-56 119q0 61 36 108q30 39 99 85q-72 58 -97 94q-29 41 -29 96q0 66 52 114t126 48zM274 397q44 38 65 75q25 43 25 94
q0 41 -30.5 68.5t-83.5 27.5q-46 0 -76.5 -29.5t-30.5 -69.5q0 -44 43 -91q27 -30 88 -75zM218 325q-41 -35 -60.5 -80t-19.5 -86q0 -59 36 -100t86 -41q51 0 87.5 28.5t36.5 69.5q0 29 -19.5 64.5t-46.5 58.5z" />
    <glyph glyph-name="nine" unicode="9" 
d="M49 -16v18q104 11 191.5 96t111.5 201q-36 -25 -64 -36q-37 -15 -80 -15q-78 0 -126.5 63t-48.5 148q0 99 64 168t155 69t155.5 -79.5t64.5 -191.5q0 -183 -124 -312t-299 -129zM360 337q3 23 5.5 55.5t2.5 46.5q0 92 -38 157.5t-93 65.5q-53 0 -80.5 -47.5t-27.5 -112.5
q0 -95 31.5 -151.5t95.5 -56.5q26 0 56 12.5t48 30.5z" />
    <glyph glyph-name="colon" unicode=":" horiz-adv-x="270" 
d="M121 469q24 0 40 -15t16 -39q0 -23 -16.5 -38.5t-39.5 -15.5q-24 0 -40 15t-16 39q0 23 16.5 38.5t39.5 15.5zM121 92q24 0 40 -15t16 -39q0 -23 -16.5 -38.5t-39.5 -15.5q-24 0 -40 15t-16 39q0 23 16.5 38.5t39.5 15.5z" />
    <glyph glyph-name="semicolon" unicode=";" horiz-adv-x="270" 
d="M141 469q24 0 40 -16t16 -40t-16 -40t-40 -16t-40 16t-16 40t16 40t40 16zM65 -168v24q48 13 80 46t32 70q0 28 -16 28q-7 0 -19 -8t-27 -8q-21 0 -35.5 16.5t-14.5 41.5q0 26 20 44t50 18q38 0 64 -31t26 -76q0 -69 -47 -117t-113 -48z" />
    <glyph glyph-name="less" unicode="&#x3c;" horiz-adv-x="600" 
d="M37 360l516 223v-47l-435 -190l435 -182v-47l-516 214v29z" />
    <glyph glyph-name="equal" unicode="=" horiz-adv-x="600" 
d="M42 427v42h516v-42h-516zM42 269v42h516v-42h-516z" />
    <glyph glyph-name="greater" unicode="&#x3e;" horiz-adv-x="600" 
d="M553 360v-29l-516 -214v47l435 182l-435 190v47z" />
    <glyph glyph-name="question" unicode="?" horiz-adv-x="463" 
d="M228 159h-24q0 87 75 235q36 71 36 133q0 64 -30.5 97.5t-80.5 33.5q-42 0 -69 -18t-27 -47q0 -19 21 -48q11 -15 11 -29q0 -47 -40 -47q-23 0 -39 21t-16 53q0 76 60 118q50 35 123 35q84 0 137.5 -43.5t53.5 -118.5q0 -62 -49 -129l-92 -113q-50 -69 -50 -133zM220 96
q24 0 40 -16t16 -40t-16 -40t-40 -16t-40 16t-16 40t16 40t40 16z" />
    <glyph glyph-name="at" unicode="@" horiz-adv-x="968" 
d="M608 384l20 65l82 10l-94 -317q-6 -21 -9.5 -38.5t-3.5 -35.5q0 -23 8 -36.5t28 -13.5q76 0 141 101t65 226q0 137 -91 230t-215 93q-191 0 -312.5 -127.5t-121.5 -313.5q0 -167 109 -285q114 -124 289 -124q150 0 254 81q89 69 141 195h30q-66 -150 -162 -223
q-109 -83 -269 -83q-199 0 -320 130q-116 125 -116 319q0 197 135 328t341 131q150 0 246 -98t96 -257q0 -141 -77 -249t-175 -108q-48 0 -72 15q-29 18 -29 61q0 23 1.5 33.5t6.5 35.5q-61 -71 -87 -94q-57 -51 -103 -51t-69 34.5t-23 84.5q0 112 86 234q93 132 195 132
q30 0 50 -25.5t25 -59.5zM375 48q71 0 142 117q68 112 68 204q0 27 -21.5 50.5t-43.5 23.5q-77 0 -142 -122q-58 -109 -58 -203q0 -27 10 -45q14 -25 45 -25z" />
    <glyph glyph-name="A" unicode="A" horiz-adv-x="750" 
d="M356 696h24l249 -589q23 -52 41 -68q24 -21 72 -21v-18h-280v18q74 0 74 44q0 18 -12 45l-51 120h-265l-52 -120q-12 -27 -12 -45q0 -21 18 -32.5t61 -11.5v-18h-217v18q35 0 58 24q19 20 39 65zM341 539l-118 -274h231z" />
    <glyph glyph-name="B" unicode="B" horiz-adv-x="672" 
d="M116 108v464q0 54 -20.5 72t-75.5 18v18h345q99 0 161.5 -46.5t62.5 -120.5q0 -57 -24 -91.5t-89 -68.5q67 -13 106 -57t39 -112q0 -79 -59.5 -131.5t-156.5 -52.5h-385v18q54 0 75 18t21 72zM220 635v-258q17 -4 57 -5.5t74 -1.5q61 0 96.5 37.5t35.5 95.5q0 64 -42 101
q-47 42 -136 42q-15 0 -37.5 -2.5t-47.5 -8.5zM220 329v-279q20 -5 51 -8t62 -3q87 0 131.5 39.5t44.5 101.5q0 70 -41 110q-47 46 -141 46q-25 0 -47 -1t-60 -6z" />
    <glyph glyph-name="C" unicode="C" horiz-adv-x="685" 
d="M618 696l17 -231h-24q-10 81 -70 139t-135 58q-112 0 -184 -95q-33 -44 -50.5 -105.5t-17.5 -133.5q0 -140 77 -224q74 -81 190 -81q61 0 120 43q52 38 94 103l17 -10q-42 -75 -107 -122q-74 -53 -159 -53q-152 0 -253 101t-101 247q0 150 106 257t251 107q59 0 100 -14
l75 -32q11 0 22 13.5t15 32.5h17z" />
    <glyph glyph-name="D" unicode="D" horiz-adv-x="737" 
d="M116 108v464q0 54 -20.5 72t-75.5 18v18h302q97 0 164.5 -19.5t113.5 -62.5q105 -98 105 -252q0 -150 -92 -245q-98 -101 -266 -101h-327v18q54 0 75 18t21 72zM220 629v-579q25 -9 51 -12.5t59 -3.5q108 0 180.5 85t72.5 225q0 127 -71.5 214.5t-181.5 87.5
q-35 0 -56 -4t-54 -13z" />
    <glyph glyph-name="E" unicode="E" horiz-adv-x="625" 
d="M20 680h522l8 -162h-18q-13 66 -42 95q-33 33 -98 33h-172v-258h147q46 0 72 19q30 22 30 69h18v-230h-18q0 57 -27.5 82.5t-72.5 25.5h-149v-278q0 -18 11 -30t29 -12h142q67 0 116 46q43 41 65 111h24l-61 -191h-526v18q54 0 75 18t21 72v464q0 54 -20.5 72t-75.5 18
v18z" />
    <glyph glyph-name="F" unicode="F" horiz-adv-x="552" 
d="M20 680h504l8 -162h-18q-13 66 -42 95q-33 33 -98 33h-154v-258h103q46 0 72 19q30 22 30 69h18v-230h-18q0 57 -27.5 82.5t-72.5 25.5h-105v-246q0 -54 20.5 -72t75.5 -18v-18h-296v18q54 0 75 18t21 72v464q0 54 -20.5 72t-75.5 18v18z" />
    <glyph glyph-name="G" unicode="G" horiz-adv-x="758" 
d="M630 696l17 -231h-24q-23 91 -72 140q-57 57 -145 57q-112 0 -184 -95q-33 -44 -50.5 -105.5t-17.5 -133.5q0 -140 77 -224q74 -81 190 -81q79 0 132 47v190q0 50 -19.5 67.5t-75.5 17.5v18h268v-18q-39 0 -54 -18t-15 -67v-210q-58 -34 -118 -50t-153 -16
q-152 0 -253 101t-101 247q0 150 106 257t251 107q59 0 104 -14l83 -32q11 0 22 13.5t15 32.5h17z" />
    <glyph glyph-name="H" unicode="H" horiz-adv-x="751" 
d="M531 336h-311v-228q0 -54 20.5 -72t75.5 -18v-18h-296v18q54 0 75 18t21 72v464q0 54 -20.5 72t-75.5 18v18h296v-18q-54 0 -75 -18t-21 -72v-202h311v202q0 54 -20.5 72t-75.5 18v18h296v-18q-54 0 -75 -18t-21 -72v-464q0 -54 20.5 -72t75.5 -18v-18h-296v18
q54 0 75 18t21 72v228z" />
    <glyph glyph-name="I" unicode="I" horiz-adv-x="342" 
d="M119 108v464q0 54 -20.5 72t-75.5 18v18h296v-18q-54 0 -75 -18t-21 -72v-464q0 -54 20.5 -72t75.5 -18v-18h-296v18q54 0 75 18t21 72z" />
    <glyph glyph-name="J" unicode="J" horiz-adv-x="397" 
d="M187 83v489q0 54 -20.5 72t-75.5 18v18h296v-18q-54 0 -75 -18t-21 -72v-354q0 -115 -51 -174.5t-139 -59.5q-40 0 -68.5 20t-28.5 58q0 21 17.5 35.5t37.5 14.5q37 0 54 -47t40 -47q16 0 25 18t9 47z" />
    <glyph glyph-name="K" unicode="K" horiz-adv-x="752" 
d="M116 108v464q0 54 -20.5 72t-75.5 18v18h296v-18q-54 0 -75 -18t-21 -72v-193l217 196q18 17 29 30q17 20 17 33q0 14 -16 19t-47 5v18h251v-19q-46 0 -81.5 -16.5t-83.5 -61.5l-202 -189l276 -275q68 -68 98 -84.5t83 -16.5v-18h-317v18q26 0 37 10t11 26q0 18 -38 56
l-234 235v-237q0 -54 20.5 -72t75.5 -18v-18h-296v18q54 0 75 18t21 72z" />
    <glyph glyph-name="L" unicode="L" horiz-adv-x="628" 
d="M116 108v464q0 54 -20.5 72t-75.5 18v18h296v-18q-54 0 -75 -18t-21 -72v-487q0 -21 11 -36t28 -15h127q81 0 134 45q47 40 70 111l20 -5l-59 -185h-531v18q54 0 75 18t21 72z" />
    <glyph glyph-name="M" unicode="M" horiz-adv-x="926" 
d="M116 108v464q0 54 -20.5 72t-75.5 18v18h202l241 -522h5l236 522h200v-18q-54 0 -75 -18t-21 -72v-464q0 -54 20.5 -72t75.5 -18v-18h-296v18q54 0 75 18t21 72v449h-4l-253 -557h-21l-257 553h-7v-445q0 -54 20.5 -72t75.5 -18v-18h-238v18q54 0 75 18t21 72z" />
    <glyph glyph-name="N" unicode="N" horiz-adv-x="739" 
d="M113 108v458q0 42 -33 69t-80 27v18h171l405 -497h4v389q0 54 -20.5 72t-75.5 18v18h238v-18q-54 0 -75 -18t-21 -72v-588h-24l-439 553h-4v-429q0 -54 20.5 -72t75.5 -18v-18h-238v18q54 0 75 18t21 72z" />
    <glyph glyph-name="O" unicode="O" horiz-adv-x="746" 
d="M373 -16q-143 0 -242 105t-99 255q0 147 98.5 249.5t242.5 102.5q143 0 242 -103t99 -249q0 -149 -98.5 -254.5t-242.5 -105.5zM373 18q103 0 161 90.5t58 235.5q0 144 -56 229q-59 89 -163 89q-105 0 -162 -87t-57 -231q0 -146 55 -233q59 -93 164 -93z" />
    <glyph glyph-name="P" unicode="P" horiz-adv-x="576" 
d="M116 108v464q0 54 -20.5 72t-75.5 18v18h292q100 0 166 -51.5t66 -142.5q0 -88 -63 -138q-57 -45 -140 -45q-37 0 -67.5 3t-53.5 9v-207q0 -54 20.5 -72t75.5 -18v-18h-296v18q54 0 75 18t21 72zM220 632v-279q28 -9 45.5 -12t33.5 -3q64 0 98.5 39.5t34.5 101.5
q0 69 -40 116t-98 47q-22 0 -37 -1.5t-37 -8.5z" />
    <glyph glyph-name="Q" unicode="Q" horiz-adv-x="738" 
d="M702 -195v-18q-127 0 -258 71q-112 61 -172 140q-103 28 -171.5 130t-68.5 216q0 147 96.5 249.5t240.5 102.5q142 0 239.5 -102.5t97.5 -249.5q0 -120 -73 -222.5t-183 -127.5q22 -72 92 -128q76 -61 160 -61zM369 18q104 13 161.5 98.5t57.5 227.5q0 144 -56 229
q-59 89 -163 89q-105 0 -162 -87t-57 -231q0 -146 55 -233q59 -93 164 -93z" />
    <glyph glyph-name="R" unicode="R" horiz-adv-x="691" 
d="M116 108v464q0 54 -20.5 72t-75.5 18v18h310q108 0 168 -50q56 -47 56 -127q0 -63 -41 -109t-110 -64l145 -213q38 -54 77 -78q35 -21 77 -21v-18h-194l-215 320h-73v-212q0 -54 20.5 -72t75.5 -18v-18h-296v18q54 0 75 18t21 72zM220 633v-279h60q71 0 116.5 39.5
t45.5 105.5q0 62 -36.5 104.5t-93.5 42.5q-23 0 -51 -4t-41 -9z" />
    <glyph glyph-name="S" unicode="S" horiz-adv-x="560" 
d="M465 459h-19q-9 94 -56.5 146.5t-129.5 52.5q-54 0 -88 -34t-34 -75q0 -58 96 -117l179 -103q97 -69 97 -150q0 -84 -60.5 -139.5t-166.5 -55.5q-32 0 -57 5.5t-44.5 13l-35.5 13.5t-31 6q-13 0 -21 -10t-11 -28h-18v230h18q0 -88 65 -142q60 -50 143 -50q52 0 90.5 31
t38.5 81q0 68 -93 126l-175 99q-94 66 -94 154q0 78 56.5 130.5t145.5 52.5q26 0 47 -5q4 -1 38 -11q12 -4 33.5 -13t31.5 -9q14 0 25.5 12.5t11.5 25.5h18v-237z" />
    <glyph glyph-name="T" unicode="T" horiz-adv-x="590" 
d="M18 680h552l8 -162h-18q-13 66 -42 95q-33 33 -98 33h-74v-538q0 -54 20.5 -72t75.5 -18v-18h-296v18q54 0 75 18t21 72v538h-74q-64 0 -96 -31.5t-44 -96.5h-18z" />
    <glyph glyph-name="U" unicode="U" horiz-adv-x="752" 
d="M113 241v331q0 54 -20.5 72t-75.5 18v18h296v-18q-54 0 -75 -18t-21 -72v-333q0 -89 53 -150t139 -61q87 0 139.5 60.5t52.5 150.5v333q0 54 -20.5 72t-75.5 18v18h238v-18q-54 0 -75 -18t-21 -72v-333q0 -113 -63 -180q-70 -75 -208 -75q-124 0 -196 75q-67 70 -67 182z
" />
    <glyph glyph-name="V" unicode="V" horiz-adv-x="724" 
d="M0 680h278v-18q-39 0 -56.5 -12t-17.5 -35q0 -20 14 -53l183 -423l168 416q12 29 12 52q0 55 -70 55v18h210v-18q-34 0 -58 -27t-49 -88l-228 -563h-26l-258 594q-20 45 -43 64.5t-59 19.5v18z" />
    <glyph glyph-name="W" unicode="W" horiz-adv-x="946" 
d="M0 680h252v-18q-35 0 -51 -10.5t-16 -26.5q0 -14 3 -24.5t14 -42.5l140 -395l113 318l-26 74q-20 59 -37 79q-23 28 -69 28v18h265v-18q-35 0 -51.5 -10.5t-16.5 -27.5q0 -26 15 -68l136 -393l138 396q11 33 11 54q0 49 -73 49l1 18h202v-18q-48 0 -70 -41
q-9 -18 -25 -64l-195 -573h-24l-157 431l-153 -431h-24l-204 570q-22 63 -37 82q-21 26 -61 26v18z" />
    <glyph glyph-name="X" unicode="X" horiz-adv-x="742" 
d="M360 298l-143 -184q-27 -27 -27 -54q0 -42 62 -42v-18h-252v18q40 0 85 26.5t73 62.5l177 231l-167 241q-28 40 -60 60q-37 23 -84 23v18h319v-18q-71 0 -71 -38q0 -20 19 -48l107 -158l124 157q26 34 26 53q0 34 -69 34v18h239v-19q-41 0 -69 -16t-62 -59l-166 -209
l192 -269q28 -40 36 -49q36 -41 85 -41v-18h-295v17q35 0 51 10t16 29q0 21 -20 52z" />
    <glyph glyph-name="Y" unicode="Y" horiz-adv-x="694" 
d="M-16 680h296v-18q-81 0 -81 -47q0 -19 18 -47l147 -236l153 246q10 19 10 35q0 49 -71 49v18h239v-18q-42 0 -68.5 -19t-57.5 -66l-178 -283v-186q0 -54 20.5 -72t75.5 -18v-18h-296v18q54 0 75 18t21 72v175l-201 302q-28 42 -42 55q-24 22 -60 22v18z" />
    <glyph glyph-name="Z" unicode="Z" horiz-adv-x="622" 
d="M86 680h511l-451 -641h275q51 0 94.5 39t64.5 100h18l-32 -178h-556v17l438 624h-210q-75 0 -106.5 -27.5t-42.5 -104.5h-18z" />
    <glyph glyph-name="bracketleft" unicode="[" horiz-adv-x="304" 
d="M41 -194v890h224v-46h-144v-798h144v-46h-224z" />
    <glyph glyph-name="backslash" unicode="\" horiz-adv-x="275" 
d="M274 -16h-47l-228 712h47z" />
    <glyph glyph-name="bracketright" unicode="]" horiz-adv-x="301" 
d="M237 -194h-224v46h144v798h-144v46h224v-890z" />
    <glyph glyph-name="asciicircum" unicode="^" horiz-adv-x="496" 
d="M72 328h-60l220 368h32l220 -368h-63l-174 292z" />
    <glyph glyph-name="underscore" unicode="_" horiz-adv-x="550" 
d="M0 -100h550v-46h-550v46z" />
    <glyph glyph-name="grave" unicode="`" horiz-adv-x="201" 
d="M11 696h126l53 -177h-28z" />
    <glyph glyph-name="a" unicode="a" horiz-adv-x="445" 
d="M365 347v-260q0 -16 5.5 -25.5t17.5 -9.5q16 0 29 11q8 7 22 29v-34q-17 -30 -42 -47q-30 -21 -65 -21q-24 0 -37 22.5t-13 50.5q-54 -46 -59 -49q-37 -24 -84 -24q-48 0 -77.5 32.5t-29.5 82.5q0 78 84 127q33 19 166 66v28q0 61 -20.5 87t-60.5 26q-38 0 -55 -22
q-13 -17 -13 -48q0 -27 -9 -44t-32 -17q-20 0 -32 15t-12 39q0 45 50 76t119 31q79 0 115 -33q33 -30 33 -89zM282 96v172q-68 -24 -110 -54q-57 -41 -57 -85q0 -33 21 -58t47 -25q25 0 51 15q17 10 48 35z" />
    <glyph glyph-name="b" unicode="b" horiz-adv-x="506" 
d="M74 45v505q0 47 -4 61t-26 14q-12 0 -41 -8l-7 18l137 61h24v-322q21 40 62.5 67.5t81.5 27.5q72 0 119.5 -59.5t47.5 -145.5q0 -114 -68 -194t-165 -80q-99 0 -161 55zM157 343v-268q22 -23 37 -32q25 -15 58 -15q57 0 93 58t36 149q0 68 -36 116t-86 48
q-28 0 -57.5 -16.5t-44.5 -39.5z" />
    <glyph glyph-name="c" unicode="c" horiz-adv-x="450" 
d="M229 -10q-82 0 -139.5 66.5t-57.5 161.5q0 105 63 178t154 73q71 0 116 -31t45 -78q0 -21 -17 -36t-38 -15q-22 0 -35.5 15.5t-13.5 35.5q0 36 -15 55.5t-55 19.5q-56 0 -88.5 -45t-32.5 -113q0 -91 40.5 -154t105.5 -63q54 0 90 35q28 27 51 85l19 -6q-21 -88 -71 -136
t-121 -48z" />
    <glyph glyph-name="d" unicode="d" 
d="M347 -10v55q-61 -55 -138 -55q-73 0 -125 69t-52 165t65 170.5t155 74.5q29 0 51.5 -10.5t43.5 -31.5v123q0 47 -4 61t-26 14q-12 0 -41 -8l-7 18l137 61h24v-560q0 -44 9 -60.5t33 -16.5q18 0 33 8l6 -14l-140 -63h-24zM347 87v227q0 51 -32 86t-72 35q-50 0 -84.5 -52
t-34.5 -133q0 -87 38.5 -148.5t93.5 -61.5q25 0 49.5 13t41.5 34z" />
    <glyph glyph-name="e" unicode="e" horiz-adv-x="462" 
d="M237 -10q-85 0 -145 65t-60 158q0 112 57 184t149 72q81 0 133.5 -53.5t52.5 -131.5h-312q0 -95 42 -159.5t106 -64.5q55 0 100 30t57 74l18 -3q-18 -72 -75.5 -121.5t-122.5 -49.5zM112 308h208q0 53 -31 90t-77 37q-39 0 -69.5 -37.5t-30.5 -89.5z" />
    <glyph glyph-name="f" unicode="f" horiz-adv-x="292" 
d="M189 459h112v-34h-112v-318q0 -51 14 -70t58 -19v-18h-227v18q44 0 58 19t14 70v318h-88v34h88v69q0 70 45 119t111 49q67 0 107 -20t40 -61q0 -39 -41 -39q-29 0 -52 43t-58 43q-26 0 -47.5 -26t-21.5 -60v-117z" />
    <glyph glyph-name="g" unicode="g" horiz-adv-x="500" 
d="M355 436h119v-38h-79q27 -42 27 -89q0 -71 -53.5 -115.5t-140.5 -44.5q-14 0 -30.5 3t-30.5 7q-12 -11 -20.5 -25t-8.5 -28q0 -32 53 -32l155 -7q70 0 101 -29q27 -25 27 -74q0 -81 -66.5 -128.5t-181.5 -47.5q-102 0 -154 24.5t-52 69.5q0 33 30 69q11 13 63 60
q-25 9 -40 23t-15 33q0 27 25 57t60 44q-42 20 -66 55.5t-24 80.5q0 69 53 117t131 48q39 0 71 -9t47 -24zM138 4q-17 -15 -27.5 -36.5t-10.5 -41.5q0 -33 41.5 -55.5t116.5 -22.5q80 0 129 25t49 58q0 30 -27 44.5t-77 14.5q-55 0 -113 4.5t-81 9.5zM242 173q36 0 63 33
t27 80q0 67 -31 113t-74 46q-40 0 -60.5 -34t-20.5 -90q0 -64 26.5 -106t69.5 -42z" />
    <glyph glyph-name="h" unicode="h" horiz-adv-x="520" 
d="M167 696v-320q75 93 162 93q44 0 74.5 -40.5t30.5 -98.5v-223q0 -51 14 -70t58 -19v-18h-227v18q44 0 58 19t14 70v208q0 43 -18.5 67.5t-48.5 24.5q-25 0 -57.5 -18.5t-59.5 -47.5v-234q0 -51 14 -70t58 -19v-18h-227v18q44 0 58 19t14 70v443q0 47 -4 61t-26 14
q-12 0 -41 -8l-7 18l137 61h24z" />
    <glyph glyph-name="i" unicode="i" horiz-adv-x="278" 
d="M144 696q20 0 34 -13t14 -33q0 -18 -14 -32t-34 -14t-34 13t-14 33q0 18 14 32t34 14zM103 107v216q0 47 -4 61t-26 14q-12 0 -41 -8l-7 18l137 61h24v-362q0 -51 14 -70t58 -19v-18h-227v18q44 0 58 19t14 70z" />
    <glyph glyph-name="j" unicode="j" horiz-adv-x="278" 
d="M144 696q20 0 34 -13t14 -33q0 -18 -14 -32t-34 -14t-34 13t-14 33q0 18 14 32t34 14zM186 469v-469q0 -134 -43 -178q-33 -34 -124 -34q-37 0 -59.5 16t-22.5 39q0 39 43 39q17 0 38 -30t42 -30t32 17.5t11 60.5v423q0 47 -4 61t-26 14q-12 0 -41 -8l-7 18l137 61h24z
" />
    <glyph glyph-name="k" unicode="k" 
d="M171 696v-435l111 101q35 31 37 33q17 17 17 30q0 10 -7 13t-29 3v18h190v-18q-48 0 -78 -13.5t-81 -61.5l-84 -73l136 -172q50 -63 78 -83t64 -20v-18h-227v18q17 0 23.5 5.5t6.5 17.5q0 8 -11 25t-26 36l-120 150v-145q0 -51 14 -70t58 -19v-18h-227v18q44 0 58 19
t14 70v443q0 47 -4 61t-26 14q-12 0 -41 -8l-7 18l137 61h24z" />
    <glyph glyph-name="l" unicode="l" horiz-adv-x="277" 
d="M181 696v-589q0 -51 14 -70t58 -19v-18h-227v18q44 0 58 19t14 70v443q0 47 -4 61t-26 14q-12 0 -41 -8l-7 18l137 61h24z" />
    <glyph glyph-name="m" unicode="m" horiz-adv-x="805" 
d="M88 107v216q0 47 -4 61t-26 14q-12 0 -41 -8l-7 18l137 61h24v-95q34 41 78 68t82 27q39 0 74 -27.5t42 -69.5q21 41 68.5 69t95.5 28t81 -42t33 -102v-218q0 -51 14 -70t58 -19v-18h-227v18q44 0 58 19t14 70v205q0 39 -22 67t-53 28q-33 0 -68 -19t-51 -46v-235
q0 -51 14 -70t58 -19v-18h-227v18q44 0 58 19t14 70v205q0 39 -22 67t-53 28q-32 0 -65.5 -19t-53.5 -46v-235q0 -51 14 -70t58 -19v-18h-227v18q44 0 58 19t14 70z" />
    <glyph glyph-name="n" unicode="n" horiz-adv-x="518" 
d="M88 107v216q0 47 -4 61t-26 14q-12 0 -41 -8l-7 18l137 61h24v-93q75 93 162 93q44 0 74.5 -40.5t30.5 -98.5v-223q0 -51 14 -70t58 -19v-18h-227v18q44 0 58 19t14 70v208q0 43 -18.5 67.5t-48.5 24.5q-25 0 -57.5 -18.5t-59.5 -47.5v-234q0 -51 14 -70t58 -19v-18h-227
v18q44 0 58 19t14 70z" />
    <glyph glyph-name="o" unicode="o" horiz-adv-x="506" 
d="M253 -10q-95 0 -158 68t-63 166q0 103 63 174t158 71t158 -65t63 -161q0 -106 -62.5 -179.5t-158.5 -73.5zM269 24q47 0 79.5 50.5t32.5 121.5q0 108 -33 169q-38 70 -115 70q-43 0 -75.5 -50t-32.5 -119q0 -103 39 -172.5t105 -69.5z" />
    <glyph glyph-name="p" unicode="p" horiz-adv-x="516" 
d="M85 -87v410q0 47 -4 61t-26 14q-12 0 -41 -8l-7 18l137 61h24v-103q41 59 81 83q33 20 71 20q73 0 118.5 -62t45.5 -154q0 -115 -56 -189t-148 -74q-64 0 -112 34v-111q0 -51 14 -70t58 -19v-18h-227v18q44 0 58 19t14 70zM168 333v-209q0 -42 31 -71t81 -29
q47 0 79.5 50.5t32.5 130.5q0 98 -30 150t-79 52q-35 0 -66 -22q-27 -19 -49 -52z" />
    <glyph glyph-name="q" unicode="q" horiz-adv-x="512" 
d="M348 -87v159q-39 -48 -74.5 -65t-74.5 -17q-69 0 -118 63t-49 154q0 109 66.5 185.5t161.5 76.5q27 0 52.5 -10t35.5 -24l63 34h20v-556q0 -51 14 -70t58 -19v-18h-227v18q44 0 58 19t14 70zM348 116v232q0 18 -6.5 32t-17.5 25.5t-34 20.5t-41 9q-54 0 -92 -53t-38 -127
q0 -81 36 -138t87 -57q35 0 65 17.5t41 38.5z" />
    <glyph glyph-name="r" unicode="r" horiz-adv-x="344" 
d="M86 107v216q0 47 -4 61t-26 14q-12 0 -41 -8l-7 18l137 61h24v-96q27 43 54 67q33 29 65 29q27 0 46 -16t19 -39q0 -45 -48 -45q-20 0 -38 15t-31 15q-16 0 -31.5 -18t-35.5 -54v-220q0 -51 14 -70t58 -19v-18h-227v18q44 0 58 19t14 70z" />
    <glyph glyph-name="s" unicode="s" horiz-adv-x="402" 
d="M54 0v159h18q8 -57 47.5 -96t89.5 -39q32 0 54 20t22 46q0 45 -61 80l-113 61q-61 43 -61 110q0 57 36.5 92.5t98.5 35.5q26 0 51 -6t53 -12q17 0 21 18h18v-153h-18q0 51 -35 87t-82 36q-36 0 -58.5 -17.5t-22.5 -43.5q0 -44 66 -79l122 -61q67 -44 67 -109
q0 -61 -42 -100t-118 -39q-26 0 -55 7.5l-59 15.5q-15 0 -21 -13h-18z" />
    <glyph glyph-name="t" unicode="t" horiz-adv-x="290" 
d="M80 425h-72v24q46 0 82.5 48t48.5 120h24v-158h111v-34h-111v-328q0 -21 13 -35t32 -14q20 0 37 16q13 12 23 33h22q-15 -50 -46.5 -78.5t-81.5 -28.5q-41 0 -61.5 28.5t-20.5 78.5v328z" />
    <glyph glyph-name="u" unicode="u" horiz-adv-x="518" 
d="M8 459h155v-326q0 -35 27 -59t65 -24q26 0 54.5 21t44.5 53v238q0 46 -14.5 62.5t-57.5 16.5v18h155v-323q0 -44 9 -60.5t33 -16.5q18 0 33 8l6 -14l-140 -63h-24v96q-22 -40 -63 -68t-79 -28q-54 0 -93 42t-39 101v229q0 46 -14.5 62.5t-57.5 16.5v18z" />
    <glyph glyph-name="v" unicode="v" horiz-adv-x="494" 
d="M0 459h208v-18q-53 0 -53 -29q0 -13 3.5 -25.5t11.5 -30.5l100 -244l104 254q7 17 10 30.5t3 25.5q0 19 -57 19v18h155v-18q-22 0 -35.5 -13.5t-27.5 -46.5l-163 -391h-24l-163 381q-18 42 -33 56t-39 14v18z" />
    <glyph glyph-name="w" unicode="w" horiz-adv-x="753" 
d="M0 459h200v-18q-39 0 -39 -25q0 -13 4 -28.5t14 -39.5l90 -224l86 220l-10 26q-10 25 -29 44q-27 27 -60 27v18h232v-18q-27 0 -45 -8.5t-18 -24.5q0 -17 17 -60l90 -224l75 214q7 19 15 49q5 18 5 23q0 16 -9.5 23.5t-34.5 7.5v18h170v-18q-37 0 -57 -15
q-26 -20 -47 -78l-132 -358h-24l-119 308l-119 -308h-24l-139 354q-26 67 -40 82t-52 15v18z" />
    <glyph glyph-name="x" unicode="x" horiz-adv-x="503" 
d="M225 203l-89 -115q-10 -13 -13.5 -23.5t-3.5 -20.5q0 -26 42 -26v-18h-149v18q13 0 30 13t42 45l119 157l-92 147q-20 32 -36 43q-25 18 -67 18v18h216v-18q-32 0 -32 -22q-1 -6 5 -18t14 -26l45 -71l40 56q12 17 22 34t10 27q0 20 -40 20v18h160v-18q-27 0 -50.5 -16.5
t-63.5 -70.5l-59 -79l127 -188q23 -34 46.5 -51.5t48.5 -17.5v-18h-225l1 18q25 0 36 8t11 21q0 8 -12.5 28.5t-16.5 26.5z" />
    <glyph glyph-name="y" unicode="y" horiz-adv-x="514" 
d="M245 23l-143 300q-29 62 -53.5 90t-48.5 28v18h211v-18q-30 0 -39.5 -9.5t-9.5 -26.5q0 -18 16 -51q9 -19 19 -37l89 -188l95 234q14 34 14 50q0 28 -47 28v18h149v-18q-27 0 -39.5 -16t-31.5 -63l-185 -452q-22 -53 -61.5 -87.5t-79.5 -34.5q-27 0 -47 14t-20 35
q0 25 11.5 38t39.5 13q19 0 29 -5q27 -13 37 -13q22 0 40 29q9 15 26 54z" />
    <glyph glyph-name="z" unicode="z" horiz-adv-x="463" 
d="M20 0v24l302 401h-165q-16 0 -33 -5t-25.5 -13.5t-15.5 -30t-7 -44.5h-18v127h382v-18l-308 -407h195q17 0 33.5 4t27.5 12t21.5 37.5t10.5 58.5h18l-10 -146h-408z" />
    <glyph glyph-name="braceleft" unicode="{" horiz-adv-x="334" 
d="M319 696v-18q-54 -5 -91 -47.5t-37 -100.5q0 -29 4 -52q12 -68 12 -70q0 -49 -39.5 -96.5t-95.5 -65.5q57 -14 96 -62t39 -104q0 -21 -8 -59t-8 -63q0 -60 37 -103.5t91 -48.5v-18q-83 0 -141.5 58.5t-58.5 141.5q0 17 10 72q6 33 6 52q0 50 -34 85t-82 35v24q48 0 82 35
t34 85q0 32 -8 71t-8 53q0 81 58.5 138.5t141.5 57.5z" />
    <glyph glyph-name="bar" unicode="|" horiz-adv-x="259" 
d="M101 680h48v-911h-48v911z" />
    <glyph glyph-name="braceright" unicode="}" horiz-adv-x="334" 
d="M19 678v18q83 0 141.5 -57.5t58.5 -138.5q0 -9 -10 -67q-6 -35 -6 -57q0 -50 34 -85t82 -35v-24q-48 0 -82 -35t-34 -85q0 -27 8 -66t8 -58q0 -83 -58.5 -141.5t-141.5 -58.5v18q54 5 91 48t37 104q0 25 -10 77q-6 31 -6 45q0 56 39 104t96 62q-57 18 -96 65t-39 97
q0 13 10 69q6 34 6 53q0 57 -37.5 100t-90.5 48z" />
    <glyph glyph-name="asciitilde" unicode="~" horiz-adv-x="607" 
d="M539 422h24q0 -79 -37 -120t-102 -41q-62 0 -144 46t-115 46q-37 0 -66.5 -27.5t-36.5 -64.5h-24q0 77 40 119t111 42q48 0 137 -46t119 -46q38 0 62 28q16 19 32 64z" />
    <glyph glyph-name="quotesinglbase" unicode="&#x201a;" horiz-adv-x="270" 
d="M65 -168v24q48 13 80 46t32 70q0 28 -16 28q-7 0 -19 -8t-27 -8q-21 0 -35.5 16.5t-14.5 41.5q0 26 20 44t50 18q38 0 64 -31t26 -76q0 -69 -47 -117t-113 -48z" />
    <glyph glyph-name="florin" unicode="&#x192;" horiz-adv-x="540" 
d="M369 431h92l-6 -31h-92l-85 -332q-29 -113 -64 -175q-59 -105 -143 -105q-28 0 -45 13.5t-17 39.5q0 20 10 33.5t29 13.5q11 0 22 -9t11 -20q0 -10 -5.5 -18.5t-5.5 -9.5q0 -12 15 -12q25 0 46 31.5t38 106.5l107 443h-93l7 31q60 0 79 16t42 79q29 81 50 111
q40 59 102 59q31 0 53 -14.5t22 -42.5q0 -16 -9.5 -28t-26.5 -12q-12 0 -22 9t-10 21q0 7 5 16t5 15q0 13 -18 13q-39 0 -55 -53q-4 -15 -14 -65z" />
    <glyph glyph-name="quotedblbase" unicode="&#x201e;" horiz-adv-x="496" 
d="M291 -168v24q48 13 80 46t32 70q0 28 -16 28q-7 0 -19 -8t-27 -8q-21 0 -35.5 16.5t-14.5 41.5q0 26 20 44t50 18q38 0 64 -31t26 -76q0 -69 -47 -117t-113 -48zM65 -168v24q48 13 80 46t32 70q0 28 -16 28q-7 0 -19 -8t-27 -8q-21 0 -35.5 16.5t-14.5 41.5q0 26 20 44
t50 18q38 0 64 -31t26 -76q0 -69 -47 -117t-113 -48z" />
    <glyph glyph-name="ellipsis" unicode="&#x2026;" horiz-adv-x="624" 
d="M121 92q24 0 40 -15t16 -39q0 -23 -16.5 -38.5t-39.5 -15.5q-24 0 -40 15t-16 39q0 23 16.5 38.5t39.5 15.5zM313 92q24 0 40 -15t16 -39q0 -23 -16.5 -38.5t-39.5 -15.5q-24 0 -40 15t-16 39q0 23 16.5 38.5t39.5 15.5zM504 92q24 0 40 -15t16 -39q0 -23 -16.5 -38.5
t-39.5 -15.5q-24 0 -40 15t-16 39q0 23 16.5 38.5t39.5 15.5z" />
    <glyph glyph-name="dagger" unicode="&#x2020;" horiz-adv-x="486" 
d="M251 -212h-20q0 115 -3.5 201.5t-14 164t-34.5 166.5q27 21 39.5 52t12.5 68q-25 0 -57 -12q-75 -28 -92 -28q-22 0 -39 13.5t-17 35.5t16.5 35t39.5 13q22 0 54 -12q74 -28 95 -28q0 26 -15 64q-33 83 -33 108t16 46t42 21t42 -20t16 -47t-15 -65q-33 -83 -33 -107
q25 0 57 12q75 28 92 28q23 0 39.5 -13t16.5 -35t-16.5 -35.5t-39.5 -13.5q-22 0 -54 12q-74 28 -95 28q0 -39 11.5 -68.5t40.5 -51.5q-31 -115 -41.5 -240t-10.5 -292z" />
    <glyph glyph-name="daggerdbl" unicode="&#x2021;" horiz-adv-x="432" 
d="M227 492q25 0 52 10q67 25 83 25q22 0 36 -12t14 -32t-13.5 -32.5t-36.5 -12.5q-19 0 -82 24q-32 12 -53 12q5 -57 50 -86q-27 -32 -38.5 -65t-11.5 -77q0 -46 11 -81.5t39 -68.5q-45 -29 -50 -86q23 0 52 11q66 25 83 25q22 0 36 -12t14 -33q0 -20 -14 -32t-36 -12
q-24 0 -50 10q-66 25 -85 25q0 -23 13 -57q30 -78 30 -91q0 -24 -15 -40t-39 -16t-39 16t-15 40q0 15 29 90q14 36 14 58q-25 0 -52 -10q-67 -25 -83 -25q-22 0 -36 12t-14 32t13.5 32.5t36.5 12.5q19 0 82 -24q32 -12 53 -12q-5 57 -50 86q27 31 38.5 68t11.5 82t-10.5 77
t-39.5 65q45 29 50 86q-23 0 -52 -11q-66 -25 -83 -25q-22 0 -36 12t-14 33q0 20 14 32t36 12q24 0 50 -10q66 -25 85 -25q0 23 -13 57q-30 78 -30 91q0 24 15 40t39 16t39 -16t15 -40q0 -15 -29 -90q-14 -36 -14 -58z" />
    <glyph glyph-name="circumflex" unicode="&#x2c6;" horiz-adv-x="328" 
d="M117 696h96l100 -167h-17l-131 107l-131 -107h-17z" />
    <glyph glyph-name="perthousand" unicode="&#x2030;" horiz-adv-x="1179" 
d="M174 696q67 0 107 -59q36 -53 36 -129q0 -74 -36 -125q-40 -56 -108 -56q-66 0 -104.5 54t-38.5 127q0 74 37 128q41 60 107 60zM175 670q-45 0 -60 -90q-6 -37 -6 -72q0 -58 9 -93q16 -62 55 -62q38 0 54 61q11 41 11 94q0 56 -10 97q-16 65 -53 65zM675 353
q67 0 107 -59q36 -53 36 -129q0 -74 -36 -125q-40 -56 -108 -56q-66 0 -104.5 54t-38.5 127q0 74 37 128q41 60 107 60zM676 327q-45 0 -60 -90q-6 -37 -6 -72q0 -58 9 -93q16 -62 55 -62q38 0 54 61q11 41 11 94q0 56 -10 97q-16 65 -53 65zM691 696l-488 -712h-45l488 712
h45zM1005 353q67 0 107 -59q36 -53 36 -129q0 -74 -36 -125q-40 -56 -108 -56q-66 0 -104.5 54t-38.5 127q0 74 37 128q41 60 107 60zM1006 327q-45 0 -60 -90q-6 -37 -6 -72q0 -58 9 -93q16 -62 55 -62q38 0 54 61q11 41 11 94q0 56 -10 97q-16 65 -53 65z" />
    <glyph glyph-name="guilsinglleft" unicode="&#x2039;" horiz-adv-x="330" 
d="M280 0h-31l-199 230l199 229h31l-128 -229z" />
    <glyph glyph-name="quoteleft" unicode="&#x2018;" horiz-adv-x="298" 
d="M225 696v-24q-48 -13 -80 -46t-32 -70q0 -28 16 -28q7 0 19 8t27 8q21 0 35.5 -16.5t14.5 -41.5q0 -26 -20 -44t-50 -18q-38 0 -64 31t-26 76q0 69 47 117t113 48z" />
    <glyph glyph-name="quoteright" unicode="&#x2019;" horiz-adv-x="298" 
d="M65 424v24q48 13 80 46t32 70q0 28 -16 28q-7 0 -19 -8t-27 -8q-21 0 -35.5 16.5t-14.5 41.5q0 26 20 44t50 18q38 0 64 -31t26 -76q0 -69 -47 -117t-113 -48z" />
    <glyph glyph-name="quotedblleft" unicode="&#x201c;" horiz-adv-x="516" 
d="M451 696v-24q-48 -13 -80 -46t-32 -70q0 -28 16 -28q7 0 19 8t27 8q21 0 35.5 -16.5t14.5 -41.5q0 -26 -20 -44t-50 -18q-38 0 -64 31t-26 76q0 69 47 117t113 48zM225 696v-24q-48 -13 -80 -46t-32 -70q0 -28 16 -28q7 0 19 8t27 8q21 0 35.5 -16.5t14.5 -41.5
q0 -26 -20 -44t-50 -18q-38 0 -64 31t-26 76q0 69 47 117t113 48z" />
    <glyph glyph-name="quotedblright" unicode="&#x201d;" horiz-adv-x="516" 
d="M65 424v24q48 13 80 46t32 70q0 28 -16 28q-7 0 -19 -8t-27 -8q-21 0 -35.5 16.5t-14.5 41.5q0 26 20 44t50 18q38 0 64 -31t26 -76q0 -69 -47 -117t-113 -48zM291 424v24q48 13 80 46t32 70q0 28 -16 28q-7 0 -19 -8t-27 -8q-21 0 -35.5 16.5t-14.5 41.5q0 26 20 44
t50 18q38 0 64 -31t26 -76q0 -69 -47 -117t-113 -48z" />
    <glyph glyph-name="bullet" unicode="&#x2022;" horiz-adv-x="350" 
d="M42 300q0 53 38 90t94 37q55 0 93 -37t38 -90q0 -52 -38 -89t-93 -37t-93.5 36.5t-38.5 89.5z" />
    <glyph glyph-name="endash" unicode="&#x2013;" horiz-adv-x="540" 
d="M520 237h-500v38h500v-38z" />
    <glyph glyph-name="emdash" unicode="&#x2014;" horiz-adv-x="1000" 
d="M980 237h-960v38h960v-38z" />
    <glyph glyph-name="tilde" unicode="&#x2dc;" horiz-adv-x="356" 
d="M27 564h-16q0 55 22 90q26 42 78 42q25 0 49 -10q15 -6 43 -24.5t41 -24.5q22 -11 36 -11q24 0 37 24q9 16 14 46h15q0 -55 -21 -89q-26 -43 -78 -43q-25 0 -49 10q-15 6 -43 24.5t-41 24.5q-22 11 -36 11q-24 0 -37 -24q-9 -16 -14 -46z" />
    <glyph glyph-name="trademark" unicode="&#x2122;" horiz-adv-x="1034" 
d="M36 680h365l9 -102h-16q-10 44 -39 59q-22 11 -75 11h-22v-277q0 -41 12 -59.5t49 -18.5v-18h-201v18q35 0 46 17.5t11 60.5v277h-18q-54 0 -75 -10q-31 -14 -39 -60h-19zM729 392l133 288h144v-18q-36 0 -48 -17.5t-12 -59.5v-214q0 -42 12.5 -60t47.5 -18v-18h-203v18
q36 0 48 17.5t12 60.5v234l-155 -330h-17l-153 325l-2 -229q0 -41 13 -59.5t47 -18.5v-18h-151v18q35 0 47.5 18.5t12.5 59.5v214q0 42 -12 59.5t-48 17.5v18h146z" />
    <glyph glyph-name="guilsinglright" unicode="&#x203a;" horiz-adv-x="330" 
d="M50 0l128 230l-128 229h31l199 -229l-199 -230h-31z" />
    <glyph glyph-name="nonbreakingspace" unicode="&#xa0;" horiz-adv-x="500" 
 />
    <glyph glyph-name="exclamdown" unicode="&#xa1;" horiz-adv-x="193" 
d="M82 506h32q3 -32 27 -228q17 -138 17 -213q0 -37 -17 -59t-43 -22q-24 0 -42 22t-18 59q0 42 30 268q14 105 14 173zM98 696q24 0 40 -15t16 -39q0 -23 -16.5 -38.5t-39.5 -15.5q-24 0 -40 15t-16 39q0 23 16.5 38.5t39.5 15.5z" />
    <glyph glyph-name="cent" unicode="&#xa2;" horiz-adv-x="500" 
d="M382 680h40l-81 -219q45 -12 71 -39t26 -62q0 -21 -17 -36t-38 -15q-22 0 -35.5 15.5t-13.5 35.5q0 16 -2 28.5t-9 22.5l-115 -311q36 -36 82 -36q54 0 90 35q28 28 51 84l14 -8q-21 -89 -68.5 -137t-119.5 -48q-42 0 -82 21l-76 -205h-40l83 226q-38 31 -60.5 80
t-22.5 106q0 104 63.5 177.5t154.5 73.5l26 -1zM143 277q0 -39 10 -76t27 -66l110 297l-26 3q-56 0 -88.5 -45t-32.5 -113z" />
    <glyph glyph-name="sterling" unicode="&#xa3;" horiz-adv-x="530" 
d="M42 345v34h98q-4 38 -5 54.5t-1 36.5q0 95 48 157q53 69 150 69q59 0 97 -35q33 -31 33 -66q0 -16 -11.5 -29.5t-28.5 -13.5q-42 0 -42 61q0 52 -63 52q-57 0 -79 -46q-16 -33 -16 -96q0 -21 3 -61.5t8 -82.5h136l1 -34h-134l-1 -48q0 -89 -34 -180q40 -20 83.5 -30.5
t85.5 -10.5q91 0 114 80l17 -4q-8 -69 -44 -115q-42 -53 -110 -53q-48 0 -93 24q-38 20 -74 59q-15 -35 -40.5 -59t-55.5 -24q-27 0 -45.5 19.5t-18.5 47.5q0 35 25 58t64 23q9 0 24 -2.5t18 -2.5q5 42 5 79q0 30 -3 66.5t-8 72.5h-103zM147 86q-23 14 -46 14t-36 -12
t-13 -31q0 -42 33 -42q23 0 41 24q14 18 21 47z" />
    <glyph glyph-name="currency" unicode="&#xa4;" horiz-adv-x="530" 
d="M77 341q0 -75 55 -128t133 -53t133 53t55 128t-55 128t-133 53t-133 -53t-55 -128zM118 171l-78 -75l-30 29l78 75q-55 57 -55 141q0 80 55 141l-78 75l30 29l78 -75q58 52 147 52q87 0 147 -52l78 75l30 -29l-78 -75q27 -28 41 -63.5t14 -77.5q0 -83 -55 -141l78 -75
l-30 -29l-78 75q-60 -52 -147 -52q-89 0 -147 52z" />
    <glyph glyph-name="yen" unicode="&#xa5;" horiz-adv-x="607" 
d="M239 108v175l-27 63h-168v38h151l-43 100h-108v38h92l-28 65q-16 37 -42 56t-66 19v18h296v-18q-44 0 -61 -9t-17 -31q0 -10 3.5 -22.5t11.5 -31.5l18 -46h154l24 56q11 22 11 38q0 46 -72 46v18h239v-18q-46 0 -76 -18.5t-52 -66.5l-25 -55h98v-38h-115l-46 -100h161
v-38h-178l-23 -51v-187q0 -53 20.5 -71.5t74.5 -18.5v-18h-303v18q57 0 76.5 17.5t19.5 72.5zM266 484l58 -147l64 147h-122z" />
    <glyph glyph-name="brokenbar" unicode="&#xa6;" horiz-adv-x="178" 
d="M113 133v-327h-48v327h48zM113 680v-313h-48v313h48z" />
    <glyph glyph-name="section" unicode="&#xa7;" horiz-adv-x="500" 
d="M176 423q-30 29 -46 57q-20 35 -20 69q0 63 43 105t108 42q53 0 92.5 -32t39.5 -82q0 -17 -11.5 -30.5t-29.5 -13.5q-17 0 -29.5 11.5t-12.5 27.5q0 8 4 25.5t4 23.5q0 22 -17 34t-40 12q-39 0 -67 -23.5t-28 -60.5q0 -54 69 -111l129 -101q70 -66 70 -139
q0 -51 -32.5 -97t-83.5 -73q31 -32 46 -56q21 -34 21 -68q0 -63 -44 -109t-109 -46q-51 0 -91 33t-40 81q0 17 11.5 30.5t29.5 13.5q19 0 28.5 -13t9.5 -32q0 -9 -4 -27t-4 -27q0 -19 20 -27t44 -8q33 0 63 27t30 59q0 53 -69 112l-130 104q-70 67 -70 136q0 54 33 101
q30 42 83 72zM193 407q-36 -20 -56 -46q-23 -30 -23 -67q0 -58 70 -119l117 -93q34 18 56.5 46.5t22.5 61.5q0 61 -69 122z" />
    <glyph glyph-name="dieresis" unicode="&#xa8;" horiz-adv-x="636" 
d="M233 882q24 0 40 -15t16 -39q0 -23 -16.5 -38.5t-39.5 -15.5q-24 0 -40 15t-16 39q0 23 16.5 38.5t39.5 15.5zM411 882q24 0 40 -15t16 -39q0 -23 -16.5 -38.5t-39.5 -15.5q-24 0 -40 15t-16 39q0 23 16.5 38.5t39.5 15.5zM20 680h522l8 -162h-18q-13 66 -42 95
q-33 33 -98 33h-172v-258h147q46 0 72 19q30 22 30 69h18v-230h-18q0 57 -27.5 82.5t-72.5 25.5h-149v-278q0 -18 11 -30t29 -12h142q67 0 116 46q43 41 65 111h24l-61 -191h-526v18q54 0 75 18t21 72v464q0 54 -20.5 72t-75.5 18v18z" />
    <glyph glyph-name="copyright" unicode="&#xa9;" horiz-adv-x="760" 
d="M544 571l10 -142h-18q-14 54 -55 86t-96 32q-81 0 -119 -58q-33 -50 -33 -136q0 -92 36 -144q43 -62 132 -62q46 0 88.5 20.5t66.5 59.5l20 -11q-70 -103 -196 -103q-94 0 -162.5 63.5t-68.5 158.5q0 105 67.5 170.5t174.5 65.5q23 0 40.5 -4t50.5 -15q15 -5 18 -5
q11 0 16.5 6.5t9.5 17.5h18zM737 341q0 -148 -104.5 -252.5t-252.5 -104.5t-252.5 104.5t-104.5 252.5t104.5 251.5t252.5 103.5t252.5 -103.5t104.5 -251.5zM706 341q0 134 -96 229t-230 95q-135 0 -230.5 -94.5t-95.5 -229.5q0 -134 96 -230t230 -96q136 0 231 94t95 232z
" />
    <glyph glyph-name="ordfeminine" unicode="&#xaa;" horiz-adv-x="320" 
d="M265 601v-140q0 -8 3.5 -16t11.5 -8q6 1 14 6.5l15 10.5v-23q-23 -17 -28 -20q-27 -17 -50 -17q-18 0 -27 13.5t-12 32.5q-27 -19 -55.5 -32.5t-56.5 -13.5q-27 0 -47.5 18.5t-20.5 46.5q0 45 65 84q42 25 115 49q0 42 -7 58q-12 27 -49 27q-46 0 -46 -41q0 -18 -7 -30
t-25 -12q-14 0 -23 8t-9 22q0 38 42 57q34 15 82 15q69 0 96 -31q19 -22 19 -64zM192 464v105q-40 -11 -69 -31q-38 -26 -38 -57q0 -19 13.5 -31.5t32.5 -12.5q16 0 31 9z" />
    <glyph glyph-name="guillemotleft" unicode="&#xab;" horiz-adv-x="528" 
d="M280 0h-31l-199 230l199 229h31l-128 -229zM478 0h-31l-199 230l199 229h31l-128 -229z" />
    <glyph glyph-name="logicalnot" unicode="&#xac;" horiz-adv-x="605" 
d="M20 459h565v-206h-44v162h-521v44z" />
    <glyph glyph-name="minus" unicode="&#xad;" horiz-adv-x="290" 
d="M20 275h250v-60h-250v60z" />
    <glyph glyph-name="registered" unicode="&#xae;" horiz-adv-x="761" 
d="M239 213v274q0 36 -10 47.5t-39 11.5v18h190q75 0 119 -25q51 -29 51 -87q0 -48 -35 -77q-29 -24 -82 -36l102 -139q19 -27 27 -35q18 -20 48 -20v-18h-101l-155 203h-40v-117q0 -38 16.5 -53t46.5 -15v-18h-193v18q26 0 40.5 14.5t14.5 53.5zM314 353h10q59 0 93 17
q47 23 47 75q0 41 -30 69t-75 28q-8 0 -18 -0.5t-27 -7.5v-181zM735 341q0 -148 -104.5 -252.5t-252.5 -104.5t-252.5 104.5t-104.5 252.5t104.5 251.5t252.5 103.5t252.5 -103.5t104.5 -251.5zM704 341q0 134 -96 229t-230 95q-135 0 -230.5 -94.5t-95.5 -229.5
q0 -134 96 -230t230 -96q136 0 231 94t95 232z" />
    <glyph glyph-name="macron" unicode="&#xaf;" horiz-adv-x="353" 
d="M10 656h333v-64h-333v64z" />
    <glyph glyph-name="degree" unicode="&#xb0;" horiz-adv-x="400" 
d="M360 543q0 -64 -46 -110t-113 -46q-68 0 -116 46t-48 111q0 62 48 107t113 45q67 0 114.5 -44.5t47.5 -108.5zM314 543q0 46 -34 79t-82 33q-46 0 -80.5 -32.5t-34.5 -78.5q0 -48 34 -82t84 -34q49 0 81 34t32 81z" />
    <glyph glyph-name="plusminus" unicode="&#xb1;" horiz-adv-x="600" 
d="M42 105v42h236v189h-236v42h236v227h44v-227h236v-42h-236v-189h236v-42h-516z" />
    <glyph glyph-name="twosuperior" unicode="&#xb2;" horiz-adv-x="356" 
d="M30 334v18q91 70 123 101q75 73 75 125q0 31 -22 51t-55 20q-60 0 -80 -58h-24q7 44 42.5 74.5t79.5 30.5q57 0 90 -27t33 -74q0 -62 -95 -146l-84 -68h110q27 0 43.5 6t24.5 23h24l-30 -76h-255z" />
    <glyph glyph-name="threesuperior" unicode="&#xb3;" horiz-adv-x="299" 
d="M97 505v18q38 0 65.5 20t27.5 56q0 54 -61 54q-23 0 -42.5 -11.5t-33.5 -32.5l-19 9q16 37 46.5 57.5t73.5 20.5q38 0 67 -19.5t29 -55.5q0 -22 -12.5 -42.5t-33.5 -35.5q33 -12 50.5 -34t17.5 -57q0 -63 -53 -98q-45 -30 -113 -30q-22 0 -45 7q-31 10 -31 28
q0 10 8.5 15t19.5 5q12 0 41 -13t49 -13q27 0 48 20t21 48q0 43 -33 63.5t-87 20.5z" />
    <glyph glyph-name="acute" unicode="&#xb4;" horiz-adv-x="201" 
d="M189 696l-151 -177h-28l53 177h126z" />
    <glyph glyph-name="mu" unicode="&#xb5;" horiz-adv-x="525" 
d="M48 459h83v-281q0 -65 18.5 -98.5t59.5 -33.5q33 0 65.5 19.5t57.5 48.5v345h83v-337q0 -27 9.5 -55.5t28.5 -28.5t30 21t13 42h23q0 -49 -26 -81q-29 -36 -78 -36q-42 0 -62.5 27t-20.5 69q-37 -43 -72 -66q-46 -30 -94 -30q-50 0 -79 40v-13q0 -46 9.5 -99t9.5 -67
q0 -24 -10 -40.5t-32 -16.5t-33.5 18t-11.5 40q0 3 19 107q10 55 10 115v391z" />
    <glyph glyph-name="paragraph" unicode="&#xb6;" horiz-adv-x="539" 
d="M442 668v-862h-38v862h-98v-862h-38v509q-113 0 -171 41q-67 47 -67 147q0 93 55 143t167 50h260v-28h-70z" />
    <glyph glyph-name="periodcentered" unicode="&#xb7;" horiz-adv-x="242" 
d="M121 386q24 0 40 -15t16 -39q0 -23 -16.5 -38.5t-39.5 -15.5q-24 0 -40 15t-16 39q0 23 16.5 38.5t39.5 15.5z" />
    <glyph glyph-name="periodcentered" unicode="&#x2219;" horiz-adv-x="242" 
d="M121 386q24 0 40 -15t16 -39q0 -23 -16.5 -38.5t-39.5 -15.5q-24 0 -40 15t-16 39q0 23 16.5 38.5t39.5 15.5z" />
    <glyph glyph-name="cedilla" unicode="&#xb8;" horiz-adv-x="463" 
d="M237 -10q-85 0 -145 65t-60 158q0 112 57 184t149 72q81 0 133.5 -53.5t52.5 -131.5h-312q0 -95 42 -159.5t106 -64.5q55 0 100 30t57 74l18 -3q-18 -72 -75.5 -121.5t-122.5 -49.5zM112 308h208q0 53 -31 90t-77 37q-39 0 -69.5 -37.5t-30.5 -89.5zM142 644q20 0 34 -13
t14 -33q0 -18 -14 -32t-34 -14t-34 13t-14 33q0 18 14 32t34 14zM320 644q20 0 34 -13t14 -33q0 -18 -14 -32t-34 -14t-34 13t-14 33q0 18 14 32t34 14z" />
    <glyph glyph-name="onesuperior" unicode="&#xb9;" horiz-adv-x="300" 
d="M75 334v18q33 0 42.5 7.5t9.5 32.5v201q0 30 -1.5 42t-15.5 12q-10 0 -16 -2t-19 -9l-10 15l107 45h21v-304q0 -25 9.5 -32.5t44.5 -7.5v-18h-172z" />
    <glyph glyph-name="ordmasculine" unicode="&#xba;" horiz-adv-x="348" 
d="M326 547q0 -59 -46 -106t-108 -47q-64 0 -108 41t-44 104q0 68 43.5 112.5t114.5 44.5q65 0 106.5 -42.5t41.5 -106.5zM253 515q0 54 -20 98q-27 58 -75 58q-35 0 -52 -33q-13 -25 -13 -63q0 -49 19 -95q25 -61 69 -61q39 0 57 30q15 25 15 66z" />
    <glyph glyph-name="guillemotright" unicode="&#xbb;" horiz-adv-x="528" 
d="M248 0l128 230l-128 229h31l199 -229l-199 -230h-31zM50 0l128 230l-128 229h31l199 -229l-199 -230h-31z" />
    <glyph glyph-name="onequarter" unicode="&#xbc;" horiz-adv-x="822" 
d="M726 0h-66v91h-179v38l197 233h48v-232h57v-39h-57v-91zM660 130v160l-136 -160h136zM70 334v18q33 0 42.5 7.5t9.5 32.5v201q0 30 -1.5 42t-15.5 12q-10 0 -16 -2t-19 -9l-10 15l107 45h21v-304q0 -25 9.5 -32.5t44.5 -7.5v-18h-172zM660 696l-486 -721h-46l486 721h46z
" />
    <glyph glyph-name="onehalf" unicode="&#xbd;" horiz-adv-x="809" 
d="M70 334v18q33 0 42.5 7.5t9.5 32.5v201q0 30 -1.5 42t-15.5 12q-10 0 -16 -2t-19 -9l-10 15l107 45h21v-304q0 -25 9.5 -32.5t44.5 -7.5v-18h-172zM653 696l-486 -721h-46l486 721h46zM488 0v18q91 70 123 101q75 73 75 125q0 31 -22 51t-55 20q-60 0 -80 -58h-24
q7 44 42.5 74.5t79.5 30.5q57 0 90 -27t33 -74q0 -62 -95 -146l-84 -68h110q27 0 43.5 6t24.5 23h24l-30 -76h-255z" />
    <glyph glyph-name="threequarters" unicode="&#xbe;" horiz-adv-x="823" 
d="M95 505v18q38 0 65.5 20t27.5 56q0 54 -61 54q-23 0 -42.5 -11.5t-33.5 -32.5l-19 9q16 37 46.5 57.5t73.5 20.5q38 0 67 -19.5t29 -55.5q0 -22 -12.5 -42.5t-33.5 -35.5q33 -12 50.5 -34t17.5 -57q0 -63 -53 -98q-45 -30 -113 -30q-22 0 -45 7q-31 10 -31 28
q0 10 8.5 15t19.5 5q12 0 41 -13t49 -13q27 0 48 20t21 48q0 43 -33 63.5t-87 20.5zM671 696l-486 -721h-46l486 721h46zM737 0h-66v91h-179v38l197 233h48v-232h57v-39h-57v-91zM671 130v160l-136 -160h136z" />
    <glyph glyph-name="questiondown" unicode="&#xbf;" horiz-adv-x="431" 
d="M191 521h24q0 -64 49 -132l92 -114q50 -68 50 -129q0 -74 -53 -118t-138 -44q-72 0 -123 36q-60 42 -60 117q0 32 15.5 50.5t40.5 18.5q39 0 39 -42q0 -14 -21 -53q-11 -20 -11 -33q0 -25 27 -40.5t67 -15.5q53 0 83 33t30 98t-34 132q-77 152 -77 236zM203 696
q24 0 40 -15t16 -39q0 -23 -16.5 -38.5t-39.5 -15.5q-24 0 -40 15t-16 39q0 23 16.5 38.5t39.5 15.5z" />
    <glyph glyph-name="Agrave" unicode="&#xc0;" horiz-adv-x="750" 
d="M356 696h24l249 -589q23 -52 41 -68q24 -21 72 -21v-18h-280v18q74 0 74 44q0 18 -12 45l-51 120h-265l-52 -120q-12 -27 -12 -45q0 -21 18 -32.5t61 -11.5v-18h-217v18q35 0 58 24q19 20 39 65zM341 539l-118 -274h231z" />
    <glyph glyph-name="Aacute" unicode="&#xc1;" horiz-adv-x="615" 
d="M20 680h508l8 -162h-18q-13 66 -42 95q-33 33 -98 33h-118q-40 0 -40 -44v-206h120q97 0 165 -56t68 -137q0 -84 -66.5 -143.5t-160.5 -59.5h-326v18q54 0 75 18t21 72v464q0 54 -20.5 72t-75.5 18v18zM220 362v-318q26 -10 76 -10q65 0 112 50t47 117t-45 114t-110 47
h-80z" />
    <glyph glyph-name="Acircumflex" unicode="&#xc2;" horiz-adv-x="672" 
d="M116 108v464q0 54 -20.5 72t-75.5 18v18h345q99 0 161.5 -46.5t62.5 -120.5q0 -57 -24 -91.5t-89 -68.5q67 -13 106 -57t39 -112q0 -79 -59.5 -131.5t-156.5 -52.5h-385v18q54 0 75 18t21 72zM220 635v-258q17 -4 57 -5.5t74 -1.5q61 0 96.5 37.5t35.5 95.5q0 64 -42 101
q-47 42 -136 42q-15 0 -37.5 -2.5t-47.5 -8.5zM220 329v-279q20 -5 51 -8t62 -3q87 0 131.5 39.5t44.5 101.5q0 70 -41 110q-47 46 -141 46q-25 0 -47 -1t-60 -6z" />
    <glyph glyph-name="Atilde" unicode="&#xc3;" horiz-adv-x="562" 
d="M20 680h517l8 -162h-18q-13 66 -42 95q-33 33 -98 33h-167v-538q0 -54 20.5 -72t75.5 -18v-18h-296v18q54 0 75 18t21 72v464q0 54 -20.5 72t-75.5 18v18z" />
    <glyph glyph-name="Adieresis" unicode="&#xc4;" horiz-adv-x="708" 
d="M94 680h573v-18q-54 0 -75 -18t-21 -72v-484q0 -40 23.5 -55t69.5 -15v-212h-23q-15 99 -59 144q-49 50 -151 50h-233q-76 0 -118 -48t-59 -146h-21v212q80 0 135 113t55 264v177q0 54 -20.5 72t-75.5 18v18zM467 646h-231v-207q0 -137 -26 -239t-81 -162h338v608z" />
    <glyph glyph-name="Aring" unicode="&#xc5;" horiz-adv-x="625" 
d="M20 680h522l8 -162h-18q-13 66 -42 95q-33 33 -98 33h-172v-258h147q46 0 72 19q30 22 30 69h18v-230h-18q0 57 -27.5 82.5t-72.5 25.5h-149v-278q0 -18 11 -30t29 -12h142q67 0 116 46q43 41 65 111h24l-61 -191h-526v18q54 0 75 18t21 72v464q0 54 -20.5 72t-75.5 18
v18z" />
    <glyph glyph-name="AE" unicode="&#xc6;" horiz-adv-x="966" 
d="M431 388v184q0 54 -20.5 72t-75.5 18v18h296v-18q-54 0 -75 -18t-21 -72v-184h42q34 0 67.5 23.5t46.5 57.5q23 71 35 105q22 60 48 88q16 17 40.5 25.5t47.5 8.5q31 0 51 -17t20 -43q0 -58 -53 -58q-24 0 -36 24t-28 24q-28 0 -48 -53q-46 -122 -49 -128
q-11 -23 -30 -43.5t-34 -24.5q62 -24 118 -148q44 -98 92 -154.5t93 -56.5v-18h-183l-107 212q-40 79 -69 110.5t-64 31.5v-246q0 -54 20.5 -72t75.5 -18v-18h-296v18q54 0 75 18t21 72v246q-35 0 -64 -31.5t-69 -110.5l-107 -212h-183v18q44 0 92.5 56.5t92.5 154.5
q56 124 118 148q-16 5 -34 24t-30 44q-4 8 -49 128q-20 53 -48 53q-15 0 -27 -24t-37 -24q-53 0 -53 58q0 25 20.5 42.5t50.5 17.5q26 0 48 -7.5t40 -26.5q29 -30 56 -113q23 -70 27 -80q12 -33 46.5 -57t67.5 -24h42z" />
    <glyph glyph-name="Ccedilla" unicode="&#xc7;" horiz-adv-x="556" 
d="M157 346v34h59q53 0 94 37q46 41 46 106q0 52 -25 89q-31 46 -90 46q-72 0 -113 -49q-29 -35 -43 -97h-18l8 184h18q0 -11 10 -19t26 -8q7 0 74 18q34 9 65 9q98 0 151.5 -43.5t53.5 -125.5q0 -59 -44 -105t-108 -58q76 -15 124.5 -66.5t48.5 -112.5q0 -83 -71 -142
t-172 -59q-74 0 -138 43q-59 39 -93 103l19 11q36 -49 81 -81q54 -38 104 -38q63 0 102.5 46t39.5 123q0 65 -43 110t-104 45h-62z" />
    <glyph glyph-name="Egrave" unicode="&#xc8;" horiz-adv-x="760" 
d="M220 167l320 422q0 73 -96 73v18h296v-18q-54 0 -75 -18t-21 -72v-464q0 -54 20.5 -72t75.5 -18v-18h-296v18q54 0 75 18t21 72v406l-320 -418q0 -37 21.5 -57.5t73.5 -20.5v-18h-295v18q54 0 75 18t21 72v464q0 54 -20.5 72t-75.5 18v18h296v-18q-54 0 -75 -18t-21 -72
v-405z" />
    <glyph glyph-name="Eacute" unicode="&#xc9;" horiz-adv-x="760" 
d="M220 167l320 422q0 73 -96 73v18h296v-18q-54 0 -75 -18t-21 -72v-464q0 -54 20.5 -72t75.5 -18v-18h-296v18q54 0 75 18t21 72v406l-320 -418q0 -37 21.5 -57.5t73.5 -20.5v-18h-295v18q54 0 75 18t21 72v464q0 54 -20.5 72t-75.5 18v18h296v-18q-54 0 -75 -18t-21 -72
v-405zM380 760q31 0 52 10t21 25q0 8 -4.5 20.5t-4.5 18.5q0 16 12.5 32t37.5 16t37.5 -14t12.5 -36q0 -41 -45.5 -72t-118.5 -31q-76 0 -120 30.5t-44 72.5q0 21 14.5 35.5t39.5 14.5q22 0 34 -13t12 -36q0 -9 -4.5 -21.5t-4.5 -16.5q0 -15 22 -25t51 -10z" />
    <glyph glyph-name="Ecircumflex" unicode="&#xca;" horiz-adv-x="650" 
d="M116 108v464q0 54 -20.5 72t-75.5 18v18h296v-18q-54 0 -75 -18t-21 -72v-184h42q34 0 67.5 23.5t46.5 57.5q23 71 35 105q22 60 48 88q16 17 40.5 25.5t47.5 8.5q31 0 51 -17t20 -43q0 -58 -53 -58q-24 0 -36 24t-28 24q-28 0 -48 -53q-46 -122 -49 -128
q-11 -23 -30 -43.5t-34 -24.5q62 -24 118 -148q44 -98 92 -154.5t93 -56.5v-18h-183l-107 212q-40 79 -69 110.5t-64 31.5v-246q0 -54 20.5 -72t75.5 -18v-18h-296v18q54 0 75 18t21 72z" />
    <glyph glyph-name="Edieresis" unicode="&#xcb;" horiz-adv-x="700" 
d="M111 680h569v-18q-54 0 -75 -18t-21 -72v-464q0 -54 20.5 -72t75.5 -18v-18h-296v18q54 0 75 18t21 72v534h-227v-313q0 -114 -4 -151q-10 -88 -43 -135q-42 -59 -125 -59q-33 0 -57 18t-24 44q0 24 14 40t33 16q33 0 48 -27t36 -27q32 0 50 41q14 31 20 74t6 117v292
q0 54 -20.5 72t-75.5 18v18z" />
    <glyph glyph-name="Igrave" unicode="&#xcc;" horiz-adv-x="926" 
d="M20 680h202l241 -522h5l236 522h200v-18q-54 0 -75 -18t-21 -72v-464q0 -54 20.5 -72t75.5 -18v-18h-296v18q54 0 75 18t21 72v449h-4l-253 -557h-21l-257 553h-7v-445q0 -54 20.5 -72t75.5 -18v-18h-238v18q54 0 75 18t21 72v464q0 54 -20.5 72t-75.5 18v18z" />
    <glyph glyph-name="Iacute" unicode="&#xcd;" horiz-adv-x="751" 
d="M531 336h-311v-228q0 -54 20.5 -72t75.5 -18v-18h-296v18q54 0 75 18t21 72v464q0 54 -20.5 72t-75.5 18v18h296v-18q-54 0 -75 -18t-21 -72v-202h311v202q0 54 -20.5 72t-75.5 18v18h296v-18q-54 0 -75 -18t-21 -72v-464q0 -54 20.5 -72t75.5 -18v-18h-296v18
q54 0 75 18t21 72v228z" />
    <glyph glyph-name="Icircumflex" unicode="&#xce;" horiz-adv-x="746" 
d="M373 -16q-143 0 -242 105t-99 255q0 147 98.5 249.5t242.5 102.5q143 0 242 -103t99 -249q0 -149 -98.5 -254.5t-242.5 -105.5zM373 18q103 0 161 90.5t58 235.5q0 144 -56 229q-59 89 -163 89q-105 0 -162 -87t-57 -231q0 -146 55 -233q59 -93 164 -93z" />
    <glyph glyph-name="Idieresis" unicode="&#xcf;" horiz-adv-x="759" 
d="M539 642h-319v-534q0 -54 20.5 -72t75.5 -18v-18h-296v18q54 0 75 18t21 72v464q0 54 -20.5 72t-75.5 18v18h719v-18q-54 0 -75 -18t-21 -72v-464q0 -54 20.5 -72t75.5 -18v-18h-296v18q54 0 75 18t21 72v534z" />
    <glyph glyph-name="Eth" unicode="&#xd0;" horiz-adv-x="576" 
d="M116 108v464q0 54 -20.5 72t-75.5 18v18h292q100 0 166 -51.5t66 -142.5q0 -88 -63 -138q-57 -45 -140 -45q-37 0 -67.5 3t-53.5 9v-207q0 -54 20.5 -72t75.5 -18v-18h-296v18q54 0 75 18t21 72zM220 632v-279q28 -9 45.5 -12t33.5 -3q64 0 98.5 39.5t34.5 101.5
q0 69 -40 116t-98 47q-22 0 -37 -1.5t-37 -8.5z" />
    <glyph glyph-name="Ntilde" unicode="&#xd1;" horiz-adv-x="685" 
d="M618 696l17 -231h-24q-10 81 -70 139t-135 58q-112 0 -184 -95q-33 -44 -50.5 -105.5t-17.5 -133.5q0 -140 77 -224q74 -81 190 -81q61 0 120 43q52 38 94 103l17 -10q-42 -75 -107 -122q-74 -53 -159 -53q-152 0 -253 101t-101 247q0 150 106 257t251 107q59 0 100 -14
l75 -32q11 0 22 13.5t15 32.5h17z" />
    <glyph glyph-name="Ograve" unicode="&#xd2;" horiz-adv-x="590" 
d="M18 680h552l8 -162h-18q-13 66 -42 95q-33 33 -98 33h-74v-538q0 -54 20.5 -72t75.5 -18v-18h-296v18q54 0 75 18t21 72v538h-74q-64 0 -96 -31.5t-44 -96.5h-18z" />
    <glyph glyph-name="Oacute" unicode="&#xd3;" horiz-adv-x="694" 
d="M396 244l148 335q16 31 16 50q0 33 -76 33v18h224v-18q-36 0 -63.5 -17.5t-50.5 -65.5l-187 -418q-49 -101 -97 -139t-130 -38q-44 0 -72 22t-28 51q0 24 16.5 39.5t43.5 15.5q22 0 46 -34t62 -34q23 0 50 28t41 62l-214 445q-26 48 -49.5 65.5t-67.5 17.5v18h310v-18
q-50 0 -73 -9t-23 -30q0 -17 15 -44z" />
    <glyph glyph-name="Ocircumflex" unicode="&#xd4;" horiz-adv-x="775" 
d="M438 113v-5q0 -54 20.5 -72t75.5 -18v-18h-296v18q54 0 75 18t21 72v5h-24q-122 0 -206 66.5t-84 168.5q0 97 85 166t205 69h24q0 52 -19 65.5t-77 13.5v18h296v-18q-56 0 -76 -13.5t-20 -65.5h24q121 0 205.5 -68.5t84.5 -166.5q0 -100 -84.5 -167.5t-205.5 -67.5h-24z
M334 147v402h-18q-73 0 -125.5 -58.5t-52.5 -142.5q0 -83 52 -142t126 -59h18zM438 549v-402h18q73 0 125.5 58.5t52.5 142.5q0 83 -52 142t-126 59h-18z" />
    <glyph glyph-name="Otilde" unicode="&#xd5;" horiz-adv-x="742" 
d="M360 298l-143 -184q-27 -27 -27 -54q0 -42 62 -42v-18h-252v18q40 0 85 26.5t73 62.5l177 231l-167 241q-28 40 -60 60q-37 23 -84 23v18h319v-18q-71 0 -71 -38q0 -20 19 -48l107 -158l124 157q26 34 26 53q0 34 -69 34v18h239v-19q-41 0 -69 -16t-62 -59l-166 -209
l192 -269q28 -40 36 -49q36 -41 85 -41v-18h-295v17q35 0 51 10t16 29q0 21 -20 52z" />
    <glyph glyph-name="Odieresis" unicode="&#xd6;" horiz-adv-x="771" 
d="M220 38h318v534q0 54 -20.5 72t-75.5 18v18h296v-18q-54 0 -75 -18t-21 -72v-484q0 -40 23.5 -55t69.5 -15v-212h-23q-15 99 -59 144q-49 50 -151 50h-482v18q56 0 76 18t20 67v469q0 54 -20.5 72t-75.5 18v18h296v-18q-54 0 -75 -18t-21 -72v-534z" />
    <glyph glyph-name="multiply" unicode="&#xd7;" horiz-adv-x="712" 
d="M596 572v-464q0 -54 20.5 -72t75.5 -18v-18h-296v18q54 0 75 18t21 72v242q-40 -33 -95.5 -54t-114.5 -21q-81 0 -130 35q-56 40 -56 116v146q0 54 -20.5 72t-75.5 18v18h296v-18q-54 0 -75 -18t-21 -72v-135q0 -50 36.5 -75t90.5 -25q45 0 86.5 13.5t78.5 43.5v178
q0 54 -20.5 72t-75.5 18v18h296v-18q-54 0 -75 -18t-21 -72z" />
    <glyph glyph-name="Oslash" unicode="&#xd8;" horiz-adv-x="992" 
d="M116 108v464q0 54 -20.5 72t-75.5 18v18h296v-18q-54 0 -75 -18t-21 -72v-493q0 -41 42 -41h143q39 0 39 41v493q0 54 -20.5 72t-75.5 18v18h296v-18q-54 0 -75 -18t-21 -72v-493q0 -19 9.5 -30t30.5 -11h146q38 0 38 41v493q0 54 -20.5 72t-75.5 18v18h296v-18
q-54 0 -75 -18t-21 -72v-464q0 -54 20.5 -72t75.5 -18v-18h-952v18q54 0 75 18t21 72z" />
    <glyph glyph-name="Ugrave" unicode="&#xd9;" horiz-adv-x="999" 
d="M116 108v464q0 54 -20.5 72t-75.5 18v18h296v-18q-54 0 -75 -18t-21 -72v-493q0 -41 42 -41h143q39 0 39 41v493q0 54 -20.5 72t-75.5 18v18h296v-18q-54 0 -75 -18t-21 -72v-493q0 -19 9.5 -30t30.5 -11h146q38 0 38 41v493q0 54 -20.5 72t-75.5 18v18h296v-18
q-54 0 -75 -18t-21 -72v-484q0 -40 23.5 -55t69.5 -15v-212h-23q-15 99 -59 144q-49 50 -151 50h-716v18q54 0 75 18t21 72z" />
    <glyph glyph-name="Uacute" unicode="&#xda;" horiz-adv-x="694" 
d="M224 108v513q0 13 -19.5 16.5t-41.5 3.5q-53 0 -82.5 -32.5t-42.5 -106.5h-18l7 178h397v-18q-54 0 -75 -18t-21 -72v-176h125q89 0 155 -55t66 -133q0 -86 -67 -147t-166 -61h-313v18q54 0 75 18t21 72zM328 362v-314q8 -7 29 -10.5t40 -3.5q71 0 118 48t47 117t-48 116
t-121 47h-65z" />
    <glyph glyph-name="Ucircumflex" unicode="&#xdb;" horiz-adv-x="857" 
d="M116 108v464q0 54 -20.5 72t-75.5 18v18h296v-18q-54 0 -75 -18t-21 -72v-176h125q89 0 155 -55t66 -133q0 -86 -67 -147t-166 -61h-313v18q54 0 75 18t21 72zM220 362v-314q8 -7 29 -10.5t40 -3.5q71 0 118 48t47 117t-48 116t-121 47h-65zM637 108v464q0 54 -20.5 72
t-75.5 18v18h296v-18q-54 0 -75 -18t-21 -72v-464q0 -54 20.5 -72t75.5 -18v-18h-296v18q54 0 75 18t21 72z" />
    <glyph glyph-name="Udieresis" unicode="&#xdc;" horiz-adv-x="586" 
d="M116 108v464q0 54 -20.5 72t-75.5 18v18h296v-18q-54 0 -75 -18t-21 -72v-176h125q89 0 155 -55t66 -133q0 -86 -67 -147t-166 -61h-313v18q54 0 75 18t21 72zM220 362v-314q8 -7 29 -10.5t40 -3.5q71 0 118 48t47 117t-48 116t-121 47h-65z" />
    <glyph glyph-name="Yacute" unicode="&#xdd;" horiz-adv-x="694" 
d="M541 350h-310v34h307q-5 56 -21 101t-44 82q-72 95 -184 95q-90 0 -158 -57t-78 -140h-18l17 231h18q4 -19 14.5 -32.5t21.5 -13.5q50 18 103 32t111 14q146 0 244.5 -102.5t98.5 -263.5q0 -146 -101 -246t-253 -100q-89 0 -173.5 49t-115.5 119l15 10
q34 -58 103.5 -98.5t135.5 -40.5q115 0 191 91t76 236z" />
    <glyph glyph-name="Thorn" unicode="&#xde;" horiz-adv-x="1035" 
d="M322 336h-102v-228q0 -54 20.5 -72t75.5 -18v-18h-296v18q54 0 75 18t21 72v464q0 54 -20.5 72t-75.5 18v18h296v-18q-54 0 -75 -18t-21 -72v-202h106q15 151 109.5 238.5t227.5 87.5q143 0 242 -103t99 -249q0 -149 -98.5 -254.5t-242.5 -105.5t-242.5 101.5
t-98.5 250.5zM663 18q103 0 161 90.5t58 235.5q0 144 -56 229q-59 89 -163 89q-105 0 -162 -87t-57 -231q0 -146 55 -233q59 -93 164 -93z" />
    <glyph glyph-name="germandbls" unicode="&#xdf;" horiz-adv-x="655" 
d="M539 572v-464q0 -54 20.5 -72t75.5 -18v-18h-296v18q54 0 75 18t21 72v210h-70q-35 0 -61 -26q-22 -22 -39 -63l-91 -229h-178v18q34 0 58.5 20t47.5 74l51 117q17 40 40 64q28 29 70 38q-73 10 -122.5 59.5t-49.5 111.5q0 76 69.5 127t178.5 51h296v-18q-54 0 -75 -18
t-21 -72zM435 352v282q-14 4 -33.5 6t-36.5 2q-61 0 -103.5 -39t-42.5 -96q0 -63 44 -109t106 -46h66z" />
    <glyph glyph-name="agrave" unicode="&#xe0;" horiz-adv-x="445" 
d="M365 347v-260q0 -16 5.5 -25.5t17.5 -9.5q16 0 29 11q8 7 22 29v-34q-17 -30 -42 -47q-30 -21 -65 -21q-24 0 -37 22.5t-13 50.5q-54 -46 -59 -49q-37 -24 -84 -24q-48 0 -77.5 32.5t-29.5 82.5q0 78 84 127q33 19 166 66v28q0 61 -20.5 87t-60.5 26q-38 0 -55 -22
q-13 -17 -13 -48q0 -27 -9 -44t-32 -17q-20 0 -32 15t-12 39q0 45 50 76t119 31q79 0 115 -33q33 -30 33 -89zM282 96v172q-68 -24 -110 -54q-57 -41 -57 -85q0 -33 21 -58t47 -25q25 0 51 15q17 10 48 35z" />
    <glyph glyph-name="aacute" unicode="&#xe1;" horiz-adv-x="508" 
d="M255 -10q-96 0 -158.5 71.5t-62.5 176.5q0 184 41 292q53 140 173 140h116q39 0 54 8q12 12 19 18h20q-8 -50 -36 -77t-78 -27h-94q-90 0 -131 -66q-34 -55 -46 -174q18 42 68 77q57 40 115 40q95 0 158 -65t63 -161q0 -106 -62.5 -179.5t-158.5 -73.5zM271 24
q47 0 79.5 50.5t32.5 121.5q0 108 -33 169q-38 70 -115 70q-43 0 -75.5 -50t-32.5 -119q0 -103 39 -172.5t105 -69.5z" />
    <glyph glyph-name="acircumflex" unicode="&#xe2;" horiz-adv-x="462" 
d="M82 98v264q0 46 -14.5 62.5t-57.5 16.5v18h255q61 0 103 -34t42 -81q0 -33 -25.5 -63t-57.5 -38q42 -11 73 -46t31 -72q0 -53 -48 -89t-118 -36h-255v18q44 0 58 15t14 65zM165 425v-169h72q38 0 64 27t26 64q0 34 -23 56t-58 22h-81zM165 232v-185q14 -8 32 -10.5
t39 -2.5q47 0 76 35q26 31 26 74q0 37 -29 63t-72 26h-72z" />
    <glyph glyph-name="atilde" unicode="&#xe3;" horiz-adv-x="408" 
d="M10 459h378l12 -143h-18q-12 45 -19 60q-22 49 -66 49h-132v-318q0 -51 14 -70t58 -19v-18h-227v18q44 0 58 19t14 70v255q0 46 -14.5 62.5t-57.5 16.5v18z" />
    <glyph glyph-name="adieresis" unicode="&#xe4;" horiz-adv-x="479" 
d="M120 302v60q0 46 -14.5 62.5t-57.5 16.5v18h411v-18q-42 0 -57 -17t-15 -62v-293q0 -29 17 -40t55 -11v-131h-18q-9 55 -46 84t-91 29h-149q-55 0 -93 -28.5t-44 -84.5h-18v131q18 0 39.5 15.5t33.5 36.5q19 34 33 102.5t14 129.5zM304 425h-150v-114q0 -87 -19.5 -166
t-47.5 -111h217v391z" />
    <glyph glyph-name="aring" unicode="&#xe5;" horiz-adv-x="462" 
d="M237 -10q-85 0 -145 65t-60 158q0 112 57 184t149 72q81 0 133.5 -53.5t52.5 -131.5h-312q0 -95 42 -159.5t106 -64.5q55 0 100 30t57 74l18 -3q-18 -72 -75.5 -121.5t-122.5 -49.5zM112 308h208q0 53 -31 90t-77 37q-39 0 -69.5 -37.5t-30.5 -89.5z" />
    <glyph glyph-name="ae" unicode="&#xe6;" horiz-adv-x="701" 
d="M309 266v97q0 46 -14.5 62.5t-57.5 16.5v18h227v-18q-42 0 -57 -17t-15 -62v-97h45q22 0 40.5 12.5t27.5 35.5l30 83q26 72 93 72q23 0 40 -13t17 -32q0 -18 -12.5 -30.5t-29.5 -12.5q-10 0 -23 8.5t-21 8.5q-28 0 -40 -28l-28 -73q-7 -18 -17 -29t-30 -20
q27 -5 49.5 -20.5t34.5 -43.5l41 -92q14 -32 37 -53t47 -21v-18h-136l-78 181q-11 27 -21 36q-15 15 -43 15h-23v-125q0 -51 14 -70t58 -19v-18h-227v18q44 0 58 19t14 70v125h-23q-26 0 -42 -15q-11 -10 -22 -36l-78 -181h-136v18q24 0 47 20.5t37 53.5l41 92
q12 27 35.5 43t48.5 21q-19 9 -29.5 19.5t-17.5 29.5l-28 73q-12 28 -40 28q-10 0 -23 -8.5t-21 -8.5q-18 0 -30 12t-12 31t16.5 32t40.5 13q35 0 57 -17t36 -55l30 -83q9 -23 27.5 -35.5t40.5 -12.5h45z" />
    <glyph glyph-name="ccedilla" unicode="&#xe7;" horiz-adv-x="404" 
d="M138 232v24h43q39 0 64.5 25.5t25.5 67.5q0 34 -27.5 58t-67.5 24q-45 0 -78.5 -36.5t-41.5 -93.5h-20v146h14q10 -17 26 -17q6 0 18 6.5l21 11.5q18 9 39.5 15t48.5 6q64 0 107.5 -34.5t43.5 -81.5q0 -40 -24 -70.5t-60 -35.5q51 -13 78 -43.5t27 -82.5q0 -54 -52 -92.5
t-128 -38.5q-56 0 -107 34q-42 29 -68 72l12 9q26 -29 69 -49t78 -20q43 0 73 27t30 66q0 42 -29.5 72.5t-70.5 30.5h-44z" />
    <glyph glyph-name="egrave" unicode="&#xe8;" horiz-adv-x="524" 
d="M165 138l194 241q0 34 -16 48t-57 14v18h228v-18q-42 0 -57 -17t-15 -62v-255q0 -51 14 -70t58 -19v-18h-227v18q44 0 58 19t14 70v224l-194 -241q0 -40 14 -56t58 -16v-18h-227v18q44 0 58 19t14 70v256q0 48 -11 61q-14 17 -60 17v18h226v-18q-42 0 -57 -17t-15 -62
v-224z" />
    <glyph glyph-name="eacute" unicode="&#xe9;" horiz-adv-x="524" 
d="M165 138l194 241q0 34 -16 48t-57 14v18h228v-18q-42 0 -57 -17t-15 -62v-255q0 -51 14 -70t58 -19v-18h-227v18q44 0 58 19t14 70v224l-194 -241q0 -40 14 -56t58 -16v-18h-227v18q44 0 58 19t14 70v256q0 48 -11 61q-14 17 -60 17v18h226v-18q-42 0 -57 -17t-15 -62
v-224zM262 506q-57 0 -97 29t-40 72q0 16 11.5 26.5t28.5 10.5q18 0 29 -10t11 -25q0 -8 -5.5 -21t-5.5 -20q0 -16 19 -27t49 -11q28 0 48 11t20 27q0 9 -5.5 22t-5.5 19q0 14 11 24.5t29 10.5q16 0 28 -11t12 -26q0 -41 -40.5 -71t-96.5 -30z" />
    <glyph glyph-name="ecircumflex" unicode="&#xea;" horiz-adv-x="476" 
d="M82 107v255q0 46 -14.5 62.5t-57.5 16.5v18h227v-18q-42 0 -57 -17t-15 -62v-96h45q22 0 40.5 12.5t27.5 35.5l30 83q26 72 93 72q23 0 40 -13t17 -32q0 -18 -12.5 -30.5t-29.5 -12.5q-10 0 -23 8.5t-21 8.5q-28 0 -40 -28l-28 -73q-7 -18 -17 -29t-30 -20
q27 -5 49.5 -20.5t34.5 -43.5l41 -92q14 -32 37 -53t47 -21v-18h-136l-78 181q-11 27 -21 36q-15 15 -43 15h-23v-125q0 -51 14 -70t58 -19v-18h-227v18q44 0 58 19t14 70z" />
    <glyph glyph-name="edieresis" unicode="&#xeb;" horiz-adv-x="528" 
d="M363 425h-163v-232q0 -83 -37 -143t-87 -60q-33 0 -54.5 14.5t-21.5 34.5q0 21 9.5 34t29.5 13q22 0 33 -25t28 -25q27 0 46.5 44.5t19.5 105.5v176q0 46 -14.5 62.5t-57.5 16.5v18h424v-18q-42 0 -57 -17t-15 -62v-255q0 -51 14 -70t58 -19v-18h-227v18q44 0 58 19
t14 70v318z" />
    <glyph glyph-name="igrave" unicode="&#xec;" horiz-adv-x="641" 
d="M10 459h154l159 -352l153 352h155v-18q-42 0 -57 -17t-15 -62v-255q0 -51 14 -70t58 -19v-18h-227v18q44 0 58 19t14 70v276l-170 -383h-24l-166 366v-268q0 -49 14 -64.5t58 -15.5v-18h-178v18q44 0 58 15t14 65v264q0 46 -14.5 62.5t-57.5 16.5v18z" />
    <glyph glyph-name="iacute" unicode="&#xed;" horiz-adv-x="526" 
d="M361 222h-196v-115q0 -51 14 -70t58 -19v-18h-227v18q44 0 58 19t14 70v255q0 46 -14.5 62.5t-57.5 16.5v18h227v-18q-42 0 -57 -17t-15 -62v-106h196v106q0 46 -14.5 62.5t-57.5 16.5v18h227v-18q-42 0 -57 -17t-15 -62v-255q0 -51 14 -70t58 -19v-18h-227v18
q44 0 58 19t14 70v115z" />
    <glyph glyph-name="icircumflex" unicode="&#xee;" horiz-adv-x="506" 
d="M253 -10q-95 0 -158 68t-63 166q0 103 63 174t158 71t158 -65t63 -161q0 -106 -62.5 -179.5t-158.5 -73.5zM269 24q47 0 79.5 50.5t32.5 121.5q0 108 -33 169q-38 70 -115 70q-43 0 -75.5 -50t-32.5 -119q0 -103 39 -172.5t105 -69.5z" />
    <glyph glyph-name="idieresis" unicode="&#xef;" horiz-adv-x="526" 
d="M361 425h-196v-318q0 -51 14 -70t58 -19v-18h-227v18q44 0 58 19t14 70v255q0 46 -14.5 62.5t-57.5 16.5v18h506v-18q-42 0 -57 -17t-15 -62v-255q0 -51 14 -70t58 -19v-18h-227v18q44 0 58 19t14 70v318z" />
    <glyph glyph-name="eth" unicode="&#xf0;" horiz-adv-x="516" 
d="M85 -87v410q0 47 -4 61t-26 14q-12 0 -41 -8l-7 18l137 61h24v-103q41 59 81 83q33 20 71 20q73 0 118.5 -62t45.5 -154q0 -115 -56 -189t-148 -74q-64 0 -112 34v-111q0 -51 14 -70t58 -19v-18h-227v18q44 0 58 19t14 70zM168 333v-209q0 -42 31 -71t81 -29
q47 0 79.5 50.5t32.5 130.5q0 98 -30 150t-79 52q-35 0 -66 -22q-27 -19 -49 -52z" />
    <glyph glyph-name="ntilde" unicode="&#xf1;" horiz-adv-x="450" 
d="M229 -10q-82 0 -139.5 66.5t-57.5 161.5q0 105 63 178t154 73q71 0 116 -31t45 -78q0 -21 -17 -36t-38 -15q-22 0 -35.5 15.5t-13.5 35.5q0 36 -15 55.5t-55 19.5q-56 0 -88.5 -45t-32.5 -113q0 -91 40.5 -154t105.5 -63q54 0 90 35q28 27 51 85l19 -6q-21 -88 -71 -136
t-121 -48z" />
    <glyph glyph-name="ograve" unicode="&#xf2;" horiz-adv-x="457" 
d="M187 107v318h-76q-35 0 -56 -29.5t-29 -79.5h-18l11 143h419l11 -143h-18q-8 50 -27 77q-23 32 -58 32h-76v-318q0 -51 14 -70t58 -19v-18h-227v18q44 0 58 19t14 70z" />
    <glyph glyph-name="oacute" unicode="&#xf3;" horiz-adv-x="514" 
d="M0 459h211v-18q-30 0 -39.5 -9.5t-9.5 -26.5q0 -18 16 -51q9 -19 19 -37l89 -188l95 234q14 34 14 50q0 28 -47 28v18h149v-18q-27 0 -39.5 -16t-31.5 -63l-185 -452q-22 -53 -61.5 -87.5t-79.5 -34.5q-27 0 -47 14t-20 35q0 25 11.5 38t39.5 13q19 0 29 -5
q27 -13 37 -13q22 0 40 29q9 15 26 54l29 70l-143 300q-29 62 -53.5 90t-48.5 28v18z" />
    <glyph glyph-name="ocircumflex" unicode="&#xf4;" horiz-adv-x="625" 
d="M271 -87v116q-12 -17 -37 -28t-52 -11q-69 0 -113.5 67.5t-44.5 168.5q0 102 46 172.5t120 70.5q23 0 46.5 -14t34.5 -34v129q0 47 -4 61t-26 14q-12 0 -41 -8l-7 18l137 61h24v-275q11 20 34 34t47 14q74 0 120 -70.5t46 -172.5q0 -101 -44.5 -168.5t-113.5 -67.5
q-26 0 -52 11.5t-37 27.5v-116q0 -51 14 -70t58 -19v-18h-227v18q44 0 58 19t14 70zM354 366v-304q9 -16 28.5 -27t37.5 -11q34 0 61 60t27 142t-27.5 145.5t-62.5 63.5q-22 0 -38 -19t-26 -50zM271 62v304q-10 33 -24 49q-17 20 -40 20q-35 0 -62.5 -63.5t-27.5 -145.5
q0 -81 26.5 -141.5t61.5 -60.5q18 0 37 10.5t29 27.5z" />
    <glyph glyph-name="otilde" unicode="&#xf5;" horiz-adv-x="503" 
d="M203 233l-92 147q-20 32 -36 43q-25 18 -67 18v18h216v-18q-32 0 -32 -22q-1 -6 5 -18t14 -26l45 -71l40 56q12 17 22 34t10 27q0 20 -40 20v18h160v-18q-27 0 -50.5 -16.5t-63.5 -70.5l-59 -79l127 -188q23 -34 46.5 -51.5t48.5 -17.5v-18h-225l1 18q25 0 36 8t11 21
q0 8 -12.5 28.5t-16.5 26.5l-66 101l-89 -115q-10 -13 -13.5 -23.5t-3.5 -20.5q0 -26 42 -26v-18h-149v18q13 0 30 13t42 45z" />
    <glyph glyph-name="odieresis" unicode="&#xf6;" horiz-adv-x="536" 
d="M165 34h196v328q0 46 -14.5 62.5t-57.5 16.5v18h227v-18q-42 0 -57 -17t-15 -62v-293q0 -29 17 -40t55 -11v-131h-18q-9 55 -46 84t-91 29h-351v18q44 0 58 15t14 65v264q0 46 -14.5 62.5t-57.5 16.5v18h227v-18q-42 0 -57 -17t-15 -62v-328z" />
    <glyph glyph-name="divide" unicode="&#xf7;" horiz-adv-x="487" 
d="M322 107v135q-56 -62 -140 -62q-52 0 -81 30t-29 79v73q0 46 -14.5 62.5t-57.5 16.5v18h227v-18q-42 0 -57 -17t-15 -62v-76q0 -23 22 -38t50 -15q56 0 95 42v87q0 46 -14.5 62.5t-57.5 16.5v18h227v-18q-42 0 -57 -17t-15 -62v-255q0 -51 14 -70t58 -19v-18h-227v18
q44 0 58 19t14 70z" />
    <glyph glyph-name="oslash" unicode="&#xf8;" horiz-adv-x="755" 
d="M590 69v293q0 46 -14.5 62.5t-57.5 16.5v18h227v-18q-42 0 -57 -17t-15 -62v-255q0 -51 14 -70t58 -19v-18h-735v18q44 0 58 15t14 65v264q0 46 -14.5 62.5t-57.5 16.5v18h227v-18q-42 0 -57 -17t-15 -62v-293q0 -19 9 -27t23 -8h106q33 0 33 35v293q0 46 -14.5 62.5
t-57.5 16.5v18h227v-18q-42 0 -57 -17t-15 -62v-293q0 -19 9 -27t24 -8h104q34 0 34 35z" />
    <glyph glyph-name="ugrave" unicode="&#xf9;" horiz-adv-x="765" 
d="M590 69v293q0 46 -14.5 62.5t-57.5 16.5v18h227v-18q-42 0 -57 -17t-15 -62v-293q0 -29 17 -40t55 -11v-131h-18q-9 55 -46 84t-91 29h-580v18q44 0 58 15t14 65v264q0 46 -14.5 62.5t-57.5 16.5v18h227v-18q-42 0 -57 -17t-15 -62v-293q0 -19 9 -27t23 -8h106
q33 0 33 35v293q0 46 -14.5 62.5t-57.5 16.5v18h227v-18q-42 0 -57 -17t-15 -62v-293q0 -19 9 -27t24 -8h104q34 0 34 35z" />
    <glyph glyph-name="uacute" unicode="&#xfa;" horiz-adv-x="501" 
d="M138 98v327h-38q-37 0 -51.5 -16.5t-20.5 -60.5h-18l14 111h269v-18q-43 0 -57.5 -16.5t-14.5 -61.5v-88h97q68 0 115.5 -38.5t47.5 -94.5q0 -58 -49 -100t-118 -42h-248v18q44 0 58 15t14 65zM221 241v-198q26 -9 58 -9q47 0 81 29t34 72q0 47 -33.5 76.5t-81.5 29.5
h-58z" />
    <glyph glyph-name="ucircumflex" unicode="&#xfb;" horiz-adv-x="639" 
d="M82 98v264q0 46 -14.5 62.5t-57.5 16.5v18h227v-18q-42 0 -57 -17t-15 -62v-87h97q68 0 115.5 -38.5t47.5 -94.5q0 -58 -49 -100t-118 -42h-248v18q44 0 58 15t14 65zM165 241v-198q26 -9 58 -9q47 0 81 29t34 72q0 47 -33.5 76.5t-81.5 29.5h-58zM474 107v255
q0 46 -14.5 62.5t-57.5 16.5v18h227v-18q-42 0 -57 -17t-15 -62v-255q0 -51 14 -70t58 -19v-18h-227v18q44 0 58 19t14 70z" />
    <glyph glyph-name="udieresis" unicode="&#xfc;" horiz-adv-x="445" 
d="M82 98v264q0 46 -14.5 62.5t-57.5 16.5v18h227v-18q-42 0 -57 -17t-15 -62v-87h97q68 0 115.5 -38.5t47.5 -94.5q0 -58 -49 -100t-118 -42h-248v18q44 0 58 15t14 65zM165 241v-198q26 -9 58 -9q47 0 81 29t34 72q0 47 -33.5 76.5t-81.5 29.5h-58z" />
    <glyph glyph-name="yacute" unicode="&#xfd;" horiz-adv-x="450" 
d="M321 222h-174v34h174q0 70 -27 116q-35 59 -105 59q-52 0 -86.5 -31t-47.5 -92h-18v151h18q2 -8 10 -18t16 -10q14 0 49 19t74 19q91 0 150.5 -62.5t59.5 -160.5q0 -115 -61.5 -185.5t-155.5 -70.5q-58 0 -101 28.5t-76 81.5l17 10q27 -37 62 -55.5t81 -18.5
q66 0 103.5 47.5t37.5 138.5z" />
    <glyph glyph-name="thorn" unicode="&#xfe;" horiz-adv-x="702" 
d="M465 469q95 0 158 -65t63 -161q0 -106 -62.5 -179.5t-158.5 -73.5q-92 0 -156.5 71.5t-64.5 160.5h-79v-115q0 -51 14 -70t58 -19v-18h-227v18q44 0 58 19t14 70v255q0 46 -14.5 62.5t-57.5 16.5v18h227v-18q-42 0 -57 -17t-15 -62v-106h80q0 92 63.5 152.5t156.5 60.5z
M481 24q52 0 82 49.5t30 122.5q0 102 -42 170.5t-112 68.5q-42 0 -72 -49.5t-30 -119.5q0 -103 40 -172.5t104 -69.5z" />
    <glyph glyph-name="ydieresis" unicode="&#xff;" horiz-adv-x="468" 
d="M305 107v105h-21q-23 0 -45 -13.5t-34 -40.5l-69 -158h-136v18q24 0 46 20.5t38 53.5l30 67q13 29 25 42q17 17 44 23q-59 11 -88 36q-34 29 -34 82q0 51 48 84t120 33h231v-18q-42 0 -57 -17t-15 -62v-255q0 -51 14 -70t58 -19v-18h-227v18q44 0 58 19t14 70zM305 246
v179h-58q-42 0 -68 -27t-26 -61q0 -46 26.5 -68.5t73.5 -22.5h52z" />
    <hkern u1="&#x2d;" u2="&#xd5;" k="50" />
    <hkern u1="&#x2d;" u2="&#xd3;" k="49" />
    <hkern u1="&#x2d;" u2="&#xd2;" k="50" />
    <hkern u1="&#x2d;" u2="&#xc6;" k="50" />
    <hkern u1="&#x2d;" u2="f" k="14" />
    <hkern u1="&#x2d;" u2="Y" k="83" />
    <hkern u1="&#x2d;" u2="X" k="69" />
    <hkern u1="&#x2d;" u2="W" k="56" />
    <hkern u1="&#x2d;" u2="V" k="83" />
    <hkern u1="&#x2d;" u2="T" k="69" />
    <hkern u1="&#x2d;" u2="J" k="56" />
    <hkern u1="&#x2d;" u2="A" k="56" />
    <hkern u1="A" u2="y" k="111" />
    <hkern u1="A" u2="w" k="97" />
    <hkern u1="A" u2="v" k="97" />
    <hkern u1="A" u2="u" k="28" />
    <hkern u1="A" u2="t" k="30" />
    <hkern u1="A" u2="q" k="28" />
    <hkern u1="A" u2="o" k="42" />
    <hkern u1="A" u2="g" k="15" />
    <hkern u1="A" u2="e" k="28" />
    <hkern u1="A" u2="d" k="28" />
    <hkern u1="A" u2="c" k="28" />
    <hkern u1="A" u2="Y" k="137" />
    <hkern u1="A" u2="W" k="125" />
    <hkern u1="A" u2="V" k="187" />
    <hkern u1="A" u2="U" k="62" />
    <hkern u1="A" u2="T" k="75" />
    <hkern u1="A" u2="Q" k="62" />
    <hkern u1="A" u2="O" k="63" />
    <hkern u1="A" u2="G" k="62" />
    <hkern u1="A" u2="C" k="75" />
    <hkern u1="A" u2="&#x2d;" k="56" />
    <hkern u1="A" u2="&#x27;" k="71" />
    <hkern u1="B" u2="y" k="15" />
    <hkern u1="B" u2="u" k="15" />
    <hkern u1="B" u2="Y" k="37" />
    <hkern u1="B" u2="W" k="45" />
    <hkern u1="B" u2="V" k="52" />
    <hkern u1="B" u2="U" k="37" />
    <hkern u1="B" u2="A" k="30" />
    <hkern u1="B" u2="&#x2e;" k="22" />
    <hkern u1="B" u2="&#x2c;" k="37" />
    <hkern u1="C" u2="X" k="28" />
    <hkern u1="C" u2="W" k="15" />
    <hkern u1="C" u2="A" k="25" />
    <hkern u1="C" u2="&#x2e;" k="30" />
    <hkern u1="C" u2="&#x2d;" k="30" />
    <hkern u1="C" u2="&#x2c;" k="30" />
    <hkern u1="D" u2="Y" k="62" />
    <hkern u1="D" u2="X" k="30" />
    <hkern u1="D" u2="V" k="75" />
    <hkern u1="D" u2="A" k="50" />
    <hkern u1="D" u2="&#x2e;" k="44" />
    <hkern u1="D" u2="&#x2c;" k="45" />
    <hkern u1="D" u2="&#x29;" k="75" />
    <hkern u1="E" u2="y" k="30" />
    <hkern u1="E" u2="w" k="30" />
    <hkern u1="E" u2="v" k="37" />
    <hkern u1="F" u2="y" k="27" />
    <hkern u1="F" u2="w" k="30" />
    <hkern u1="F" u2="v" k="37" />
    <hkern u1="F" u2="q" k="22" />
    <hkern u1="F" u2="o" k="28" />
    <hkern u1="F" u2="i" k="22" />
    <hkern u1="F" u2="g" k="45" />
    <hkern u1="F" u2="e" k="28" />
    <hkern u1="F" u2="d" k="37" />
    <hkern u1="F" u2="a" k="28" />
    <hkern u1="F" u2="Q" k="30" />
    <hkern u1="F" u2="O" k="30" />
    <hkern u1="F" u2="G" k="30" />
    <hkern u1="F" u2="A" k="62" />
    <hkern u1="F" u2="&#x3b;" k="42" />
    <hkern u1="F" u2="&#x3a;" k="42" />
    <hkern u1="F" u2="&#x2e;" k="83" />
    <hkern u1="F" u2="&#x2d;" k="56" />
    <hkern u1="F" u2="&#x2c;" k="83" />
    <hkern u1="G" u2="v" k="37" />
    <hkern u1="G" u2="Y" k="30" />
    <hkern u1="G" u2="W" k="14" />
    <hkern u1="G" u2="V" k="52" />
    <hkern u1="G" u2="S" k="22" />
    <hkern u1="G" u2="A" k="50" />
    <hkern u1="H" u2="y" k="22" />
    <hkern u1="H" u2="w" k="22" />
    <hkern u1="H" u2="v" k="22" />
    <hkern u1="J" u2="u" k="15" />
    <hkern u1="J" u2="o" k="15" />
    <hkern u1="J" u2="e" k="15" />
    <hkern u1="J" u2="A" k="62" />
    <hkern u1="J" u2="&#x2e;" k="37" />
    <hkern u1="J" u2="&#x2c;" k="37" />
    <hkern u1="K" u2="y" k="69" />
    <hkern u1="K" u2="u" k="30" />
    <hkern u1="K" u2="o" k="28" />
    <hkern u1="K" u2="e" k="28" />
    <hkern u1="K" u2="a" k="30" />
    <hkern u1="K" u2="Q" k="60" />
    <hkern u1="K" u2="O" k="70" />
    <hkern u1="K" u2="C" k="68" />
    <hkern u1="K" u2="&#x2d;" k="97" />
    <hkern u1="L" u2="y" k="56" />
    <hkern u1="L" u2="w" k="52" />
    <hkern u1="L" u2="v" k="90" />
    <hkern u1="L" u2="u" k="30" />
    <hkern u1="L" u2="Y" k="167" />
    <hkern u1="L" u2="W" k="153" />
    <hkern u1="L" u2="V" k="139" />
    <hkern u1="L" u2="U" k="67" />
    <hkern u1="L" u2="T" k="111" />
    <hkern u1="L" u2="Q" k="30" />
    <hkern u1="L" u2="P" k="22" />
    <hkern u1="L" u2="O" k="42" />
    <hkern u1="L" u2="D" k="7" />
    <hkern u1="L" u2="&#x27;" k="97" />
    <hkern u1="N" u2="v" k="37" />
    <hkern u1="N" u2="u" k="30" />
    <hkern u1="N" u2="o" k="22" />
    <hkern u1="N" u2="a" k="30" />
    <hkern u1="O" u2="Y" k="69" />
    <hkern u1="O" u2="X" k="56" />
    <hkern u1="O" u2="W" k="42" />
    <hkern u1="O" u2="V" k="70" />
    <hkern u1="O" u2="U" k="15" />
    <hkern u1="O" u2="T" k="28" />
    <hkern u1="O" u2="J" k="22" />
    <hkern u1="O" u2="A" k="104" />
    <hkern u1="O" u2="&#x2e;" k="55" />
    <hkern u1="O" u2="&#x2c;" k="56" />
    <hkern u1="P" u2="s" k="28" />
    <hkern u1="P" u2="o" k="28" />
    <hkern u1="P" u2="e" k="28" />
    <hkern u1="P" u2="d" k="15" />
    <hkern u1="P" u2="a" k="28" />
    <hkern u1="P" u2="Y" k="14" />
    <hkern u1="P" u2="W" k="22" />
    <hkern u1="P" u2="V" k="22" />
    <hkern u1="P" u2="U" k="15" />
    <hkern u1="P" u2="A" k="83" />
    <hkern u1="P" u2="&#x2e;" k="83" />
    <hkern u1="P" u2="&#x2d;" k="28" />
    <hkern u1="P" u2="&#x2c;" k="83" />
    <hkern u1="Q" u2="Y" k="22" />
    <hkern u1="Q" u2="X" k="44" />
    <hkern u1="Q" u2="W" k="37" />
    <hkern u1="Q" u2="V" k="38" />
    <hkern u1="Q" u2="U" k="15" />
    <hkern u1="Q" u2="A" k="37" />
    <hkern u1="Q" u2="&#x2e;" k="60" />
    <hkern u1="Q" u2="&#x2c;" k="37" />
    <hkern u1="R" u2="w" k="30" />
    <hkern u1="R" u2="v" k="45" />
    <hkern u1="R" u2="u" k="22" />
    <hkern u1="R" u2="t" k="22" />
    <hkern u1="R" u2="o" k="22" />
    <hkern u1="R" u2="e" k="22" />
    <hkern u1="R" u2="Y" k="69" />
    <hkern u1="R" u2="W" k="83" />
    <hkern u1="R" u2="V" k="60" />
    <hkern u1="R" u2="U" k="37" />
    <hkern u1="R" u2="T" k="42" />
    <hkern u1="R" u2="O" k="22" />
    <hkern u1="R" u2="G" k="22" />
    <hkern u1="R" u2="C" k="37" />
    <hkern u1="S" u2="Y" k="45" />
    <hkern u1="S" u2="W" k="30" />
    <hkern u1="S" u2="V" k="67" />
    <hkern u1="S" u2="U" k="37" />
    <hkern u1="S" u2="T" k="37" />
    <hkern u1="S" u2="&#x2e;" k="37" />
    <hkern u1="S" u2="&#x2c;" k="37" />
    <hkern u1="T" u2="y" k="56" />
    <hkern u1="T" u2="x" k="37" />
    <hkern u1="T" u2="w" k="42" />
    <hkern u1="T" u2="v" k="52" />
    <hkern u1="T" u2="u" k="22" />
    <hkern u1="T" u2="s" k="42" />
    <hkern u1="T" u2="r" k="30" />
    <hkern u1="T" u2="o" k="42" />
    <hkern u1="T" u2="g" k="52" />
    <hkern u1="T" u2="e" k="42" />
    <hkern u1="T" u2="d" k="30" />
    <hkern u1="T" u2="c" k="42" />
    <hkern u1="T" u2="a" k="35" />
    <hkern u1="T" u2="S" k="22" />
    <hkern u1="T" u2="O" k="28" />
    <hkern u1="T" u2="C" k="28" />
    <hkern u1="T" u2="A" k="74" />
    <hkern u1="T" u2="&#x3b;" k="42" />
    <hkern u1="T" u2="&#x3a;" k="42" />
    <hkern u1="T" u2="&#x2e;" k="84" />
    <hkern u1="T" u2="&#x2d;" k="69" />
    <hkern u1="T" u2="&#x2c;" k="83" />
    <hkern u1="U" u2="s" k="30" />
    <hkern u1="U" u2="o" k="15" />
    <hkern u1="U" u2="g" k="22" />
    <hkern u1="U" u2="e" k="15" />
    <hkern u1="U" u2="d" k="14" />
    <hkern u1="U" u2="a" k="15" />
    <hkern u1="U" u2="S" k="22" />
    <hkern u1="U" u2="Q" k="15" />
    <hkern u1="U" u2="O" k="15" />
    <hkern u1="U" u2="A" k="62" />
    <hkern u1="U" u2="&#x2e;" k="67" />
    <hkern u1="U" u2="&#x2c;" k="67" />
    <hkern u1="V" u2="y" k="69" />
    <hkern u1="V" u2="u" k="28" />
    <hkern u1="V" u2="r" k="42" />
    <hkern u1="V" u2="q" k="60" />
    <hkern u1="V" u2="o" k="83" />
    <hkern u1="V" u2="i" k="42" />
    <hkern u1="V" u2="e" k="69" />
    <hkern u1="V" u2="a" k="69" />
    <hkern u1="V" u2="Q" k="67" />
    <hkern u1="V" u2="O" k="56" />
    <hkern u1="V" u2="G" k="52" />
    <hkern u1="V" u2="C" k="60" />
    <hkern u1="V" u2="A" k="150" />
    <hkern u1="V" u2="&#x3b;" k="83" />
    <hkern u1="V" u2="&#x3a;" k="83" />
    <hkern u1="V" u2="&#x2e;" k="111" />
    <hkern u1="V" u2="&#x2d;" k="83" />
    <hkern u1="V" u2="&#x2c;" k="111" />
    <hkern u1="W" u2="y" k="28" />
    <hkern u1="W" u2="u" k="28" />
    <hkern u1="W" u2="r" k="14" />
    <hkern u1="W" u2="o" k="42" />
    <hkern u1="W" u2="m" k="8" />
    <hkern u1="W" u2="i" k="28" />
    <hkern u1="W" u2="g" k="67" />
    <hkern u1="W" u2="e" k="42" />
    <hkern u1="W" u2="d" k="30" />
    <hkern u1="W" u2="a" k="21" />
    <hkern u1="W" u2="S" k="30" />
    <hkern u1="W" u2="Q" k="37" />
    <hkern u1="W" u2="O" k="35" />
    <hkern u1="W" u2="G" k="30" />
    <hkern u1="W" u2="C" k="37" />
    <hkern u1="W" u2="A" k="137" />
    <hkern u1="W" u2="&#x3b;" k="83" />
    <hkern u1="W" u2="&#x3a;" k="84" />
    <hkern u1="W" u2="&#x2e;" k="97" />
    <hkern u1="W" u2="&#x2d;" k="56" />
    <hkern u1="W" u2="&#x2c;" k="97" />
    <hkern u1="X" u2="Q" k="30" />
    <hkern u1="X" u2="O" k="56" />
    <hkern u1="X" u2="C" k="42" />
    <hkern u1="X" u2="&#x2d;" k="56" />
    <hkern u1="Y" u2="v" k="67" />
    <hkern u1="Y" u2="u" k="69" />
    <hkern u1="Y" u2="q" k="82" />
    <hkern u1="Y" u2="o" k="97" />
    <hkern u1="Y" u2="i" k="42" />
    <hkern u1="Y" u2="e" k="98" />
    <hkern u1="Y" u2="d" k="67" />
    <hkern u1="Y" u2="a" k="69" />
    <hkern u1="Y" u2="S" k="45" />
    <hkern u1="Y" u2="Q" k="60" />
    <hkern u1="Y" u2="O" k="67" />
    <hkern u1="Y" u2="G" k="37" />
    <hkern u1="Y" u2="C" k="69" />
    <hkern u1="Y" u2="A" k="153" />
    <hkern u1="Y" u2="&#x3b;" k="97" />
    <hkern u1="Y" u2="&#x3a;" k="97" />
    <hkern u1="Y" u2="&#x2e;" k="125" />
    <hkern u1="Y" u2="&#x2d;" k="111" />
    <hkern u1="Y" u2="&#x2c;" k="125" />
    <hkern u1="`" u2="J" k="28" />
    <hkern u1="`" u2="A" k="167" />
    <hkern u1="a" u2="w" k="15" />
    <hkern u1="c" u2="w" k="22" />
    <hkern u1="c" u2="v" k="15" />
    <hkern u1="e" u2="y" k="22" />
    <hkern u1="e" u2="w" k="15" />
    <hkern u1="f" u2="t" k="-30" />
    <hkern u1="f" u2="&#x2d;" k="14" />
    <hkern u1="f" u2="&#x27;" k="-125" />
    <hkern u1="g" u2="A" k="7" />
    <hkern u1="o" u2="w" k="15" />
    <hkern u1="o" u2="v" k="22" />
    <hkern u1="r" u2="&#x2e;" k="69" />
    <hkern u1="r" u2="&#x2c;" k="69" />
    <hkern u1="s" u2="&#x2c;" k="30" />
    <hkern u1="t" u2="&#x2c;" k="7" />
    <hkern u1="u" u2="v" k="15" />
    <hkern u1="v" u2="o" k="22" />
    <hkern u1="v" u2="g" k="30" />
    <hkern u1="v" u2="e" k="22" />
    <hkern u1="v" u2="d" k="15" />
    <hkern u1="v" u2="c" k="15" />
    <hkern u1="v" u2="&#x2e;" k="69" />
    <hkern u1="v" u2="&#x2c;" k="69" />
    <hkern u1="w" u2="o" k="15" />
    <hkern u1="w" u2="g" k="30" />
    <hkern u1="w" u2="e" k="15" />
    <hkern u1="w" u2="d" k="22" />
    <hkern u1="w" u2="c" k="22" />
    <hkern u1="w" u2="a" k="15" />
    <hkern u1="w" u2="&#x2e;" k="70" />
    <hkern u1="w" u2="&#x2c;" k="69" />
    <hkern u1="x" u2="e" k="22" />
    <hkern u1="y" u2="v" k="37" />
    <hkern u1="y" u2="o" k="22" />
    <hkern u1="y" u2="e" k="22" />
    <hkern u1="y" u2="d" k="22" />
    <hkern u1="y" u2="c" k="22" />
    <hkern u1="y" u2="a" k="22" />
    <hkern u1="y" u2="&#x2e;" k="69" />
    <hkern u1="y" u2="&#x2c;" k="69" />
    <hkern u1="&#xc0;" u2="&#xf7;" k="87" />
    <hkern u1="&#xc0;" u2="&#xf4;" k="37" />
    <hkern u1="&#xc0;" u2="&#xf3;" k="75" />
    <hkern u1="&#xc0;" u2="&#xf2;" k="62" />
    <hkern u1="&#xc0;" u2="&#xee;" k="37" />
    <hkern u1="&#xc0;" u2="&#xe5;" k="37" />
    <hkern u1="&#xc0;" u2="&#xe1;" k="37" />
    <hkern u1="&#xc0;" u2="&#xd7;" k="149" />
    <hkern u1="&#xc0;" u2="&#xd4;" k="61" />
    <hkern u1="&#xc0;" u2="&#xd3;" k="57" />
    <hkern u1="&#xc0;" u2="&#xd2;" k="100" />
    <hkern u1="&#xc0;" u2="&#xce;" k="67" />
    <hkern u1="&#xc0;" u2="&#x27;" k="87" />
    <hkern u1="&#xc3;" u2="&#xf3;" k="75" />
    <hkern u1="&#xc3;" u2="&#xf1;" k="75" />
    <hkern u1="&#xc3;" u2="&#xf0;" k="62" />
    <hkern u1="&#xc3;" u2="&#xee;" k="62" />
    <hkern u1="&#xc3;" u2="&#xeb;" k="87" />
    <hkern u1="&#xc3;" u2="&#xe5;" k="62" />
    <hkern u1="&#xc3;" u2="&#xe4;" k="62" />
    <hkern u1="&#xc3;" u2="&#xe0;" k="50" />
    <hkern u1="&#xc3;" u2="&#xdf;" k="37" />
    <hkern u1="&#xc3;" u2="&#xd4;" k="37" />
    <hkern u1="&#xc3;" u2="&#xd1;" k="12" />
    <hkern u1="&#xc3;" u2="&#xcb;" k="50" />
    <hkern u1="&#xc3;" u2="&#xc4;" k="37" />
    <hkern u1="&#xc3;" u2="&#xc0;" k="100" />
    <hkern u1="&#xc3;" u2="&#x3b;" k="50" />
    <hkern u1="&#xc3;" u2="&#x3a;" k="50" />
    <hkern u1="&#xc3;" u2="&#x2e;" k="125" />
    <hkern u1="&#xc3;" u2="&#x2d;" k="62" />
    <hkern u1="&#xc3;" u2="&#x2c;" k="124" />
    <hkern u1="&#xc4;" u2="&#xd4;" k="25" />
    <hkern u1="&#xc4;" u2="&#xce;" k="12" />
    <hkern u1="&#xc6;" u2="&#xd1;" k="25" />
    <hkern u1="&#xc6;" u2="&#xce;" k="25" />
    <hkern u1="&#xc6;" u2="&#x2d;" k="50" />
    <hkern u1="&#xc7;" u2="&#xc6;" k="25" />
    <hkern u1="&#xca;" u2="&#xd4;" k="37" />
    <hkern u1="&#xca;" u2="&#xd1;" k="25" />
    <hkern u1="&#xca;" u2="&#xce;" k="25" />
    <hkern u1="&#xce;" u2="&#xdf;" k="25" />
    <hkern u1="&#xce;" u2="&#xd7;" k="37" />
    <hkern u1="&#xce;" u2="&#xd5;" k="50" />
    <hkern u1="&#xce;" u2="&#xd3;" k="37" />
    <hkern u1="&#xce;" u2="&#xd2;" k="13" />
    <hkern u1="&#xce;" u2="&#xcb;" k="50" />
    <hkern u1="&#xce;" u2="&#xc6;" k="25" />
    <hkern u1="&#xce;" u2="&#xc4;" k="49" />
    <hkern u1="&#xce;" u2="&#xc0;" k="67" />
    <hkern u1="&#xd0;" u2="&#xdf;" k="25" />
    <hkern u1="&#xd0;" u2="&#xd3;" k="25" />
    <hkern u1="&#xd0;" u2="&#xcb;" k="62" />
    <hkern u1="&#xd0;" u2="&#xc4;" k="50" />
    <hkern u1="&#xd0;" u2="&#xc0;" k="125" />
    <hkern u1="&#xd1;" u2="&#xd3;" k="25" />
    <hkern u1="&#xd1;" u2="&#xc6;" k="25" />
    <hkern u1="&#xd1;" u2="&#xc4;" k="50" />
    <hkern u1="&#xd1;" u2="&#xc0;" k="102" />
    <hkern u1="&#xd2;" u2="&#xff;" k="50" />
    <hkern u1="&#xd2;" u2="&#xf3;" k="75" />
    <hkern u1="&#xd2;" u2="&#xf1;" k="50" />
    <hkern u1="&#xd2;" u2="&#xf0;" k="25" />
    <hkern u1="&#xd2;" u2="&#xee;" k="50" />
    <hkern u1="&#xd2;" u2="&#xed;" k="13" />
    <hkern u1="&#xd2;" u2="&#xeb;" k="62" />
    <hkern u1="&#xd2;" u2="&#xe5;" k="50" />
    <hkern u1="&#xd2;" u2="&#xe4;" k="62" />
    <hkern u1="&#xd2;" u2="&#xe0;" k="37" />
    <hkern u1="&#xd2;" u2="&#xd4;" k="50" />
    <hkern u1="&#xd2;" u2="&#xd2;" k="-12" />
    <hkern u1="&#xd2;" u2="&#xd1;" k="12" />
    <hkern u1="&#xd2;" u2="&#xce;" k="13" />
    <hkern u1="&#xd2;" u2="&#xcb;" k="37" />
    <hkern u1="&#xd2;" u2="&#xc4;" k="37" />
    <hkern u1="&#xd2;" u2="&#xc0;" k="100" />
    <hkern u1="&#xd2;" u2="&#x3b;" k="50" />
    <hkern u1="&#xd2;" u2="&#x3a;" k="37" />
    <hkern u1="&#xd2;" u2="&#x2e;" k="100" />
    <hkern u1="&#xd2;" u2="&#x2d;" k="50" />
    <hkern u1="&#xd2;" u2="&#x2c;" k="100" />
    <hkern u1="&#xd3;" u2="&#xf5;" k="87" />
    <hkern u1="&#xd3;" u2="&#xf4;" k="75" />
    <hkern u1="&#xd3;" u2="&#xf1;" k="62" />
    <hkern u1="&#xd3;" u2="&#xf0;" k="62" />
    <hkern u1="&#xd3;" u2="&#xed;" k="50" />
    <hkern u1="&#xd3;" u2="&#xec;" k="50" />
    <hkern u1="&#xd3;" u2="&#xeb;" k="99" />
    <hkern u1="&#xd3;" u2="&#xea;" k="50" />
    <hkern u1="&#xd3;" u2="&#xe7;" k="62" />
    <hkern u1="&#xd3;" u2="&#xe5;" k="87" />
    <hkern u1="&#xd3;" u2="&#xe4;" k="62" />
    <hkern u1="&#xd3;" u2="&#xe3;" k="50" />
    <hkern u1="&#xd3;" u2="&#xe1;" k="50" />
    <hkern u1="&#xd3;" u2="&#xe0;" k="87" />
    <hkern u1="&#xd3;" u2="&#xd5;" k="50" />
    <hkern u1="&#xd3;" u2="&#xd4;" k="50" />
    <hkern u1="&#xd3;" u2="&#xd1;" k="62" />
    <hkern u1="&#xd3;" u2="&#xce;" k="50" />
    <hkern u1="&#xd3;" u2="&#xcb;" k="50" />
    <hkern u1="&#xd3;" u2="&#xc7;" k="25" />
    <hkern u1="&#xd3;" u2="&#xc4;" k="50" />
    <hkern u1="&#xd3;" u2="&#xc0;" k="165" />
    <hkern u1="&#xd3;" u2="&#x3b;" k="100" />
    <hkern u1="&#xd3;" u2="&#x3a;" k="75" />
    <hkern u1="&#xd3;" u2="&#x2e;" k="162" />
    <hkern u1="&#xd3;" u2="&#x2d;" k="62" />
    <hkern u1="&#xd3;" u2="&#x2c;" k="162" />
    <hkern u1="&#xd4;" u2="&#xd5;" k="50" />
    <hkern u1="&#xd4;" u2="&#xd3;" k="50" />
    <hkern u1="&#xd4;" u2="&#xd2;" k="50" />
    <hkern u1="&#xd4;" u2="&#xcb;" k="50" />
    <hkern u1="&#xd4;" u2="&#xc4;" k="50" />
    <hkern u1="&#xd4;" u2="&#xc0;" k="62" />
    <hkern u1="&#xd5;" u2="&#xce;" k="50" />
    <hkern u1="&#xd5;" u2="&#x2d;" k="50" />
    <hkern u1="&#xd6;" u2="&#xd1;" k="37" />
    <hkern u1="&#xd6;" u2="&#xce;" k="37" />
    <hkern u1="&#xd9;" u2="&#xd1;" k="12" />
    <hkern u1="&#xd9;" u2="&#xce;" k="13" />
    <hkern u1="&#xda;" u2="&#xdf;" k="25" />
    <hkern u1="&#xdc;" u2="&#xdf;" k="25" />
    <hkern u1="&#xdd;" u2="&#xd7;" k="25" />
    <hkern u1="&#xdd;" u2="&#xd2;" k="25" />
    <hkern u1="&#xdd;" u2="&#xcb;" k="50" />
    <hkern u1="&#xdd;" u2="&#xc4;" k="37" />
    <hkern u1="&#xdd;" u2="&#xc0;" k="62" />
    <hkern u1="&#xde;" u2="&#xd5;" k="49" />
    <hkern u1="&#xde;" u2="&#xcb;" k="37" />
    <hkern u1="&#xde;" u2="&#xc4;" k="62" />
    <hkern u1="&#xde;" u2="&#xc0;" k="75" />
    <hkern u1="&#xe0;" u2="&#xf3;" k="25" />
    <hkern u1="&#xe2;" u2="&#xf3;" k="12" />
    <hkern u1="&#xe3;" u2="&#xee;" k="13" />
    <hkern u1="&#xe3;" u2="&#xe5;" k="13" />
    <hkern u1="&#xe3;" u2="&#x2e;" k="75" />
    <hkern u1="&#xe3;" u2="&#x2c;" k="75" />
    <hkern u1="&#xe5;" u2="&#xeb;" k="37" />
    <hkern u1="&#xe5;" u2="&#xe6;" k="25" />
    <hkern u1="&#xe5;" u2="&#xe4;" k="25" />
    <hkern u1="&#xe6;" u2="&#xee;" k="25" />
    <hkern u1="&#xe6;" u2="&#xe5;" k="12" />
    <hkern u1="&#xe7;" u2="&#xe4;" k="25" />
    <hkern u1="&#xea;" u2="&#xf1;" k="12" />
    <hkern u1="&#xea;" u2="&#xee;" k="12" />
    <hkern u1="&#xea;" u2="&#xe5;" k="13" />
    <hkern u1="&#xee;" u2="&#xf3;" k="12" />
    <hkern u1="&#xee;" u2="&#xe6;" k="25" />
    <hkern u1="&#xf0;" u2="&#xf3;" k="25" />
    <hkern u1="&#xf1;" u2="&#xf3;" k="12" />
    <hkern u1="&#xf1;" u2="&#xe6;" k="25" />
    <hkern u1="&#xf2;" u2="&#xf1;" k="12" />
    <hkern u1="&#xf2;" u2="&#xee;" k="12" />
    <hkern u1="&#xf2;" u2="&#xeb;" k="37" />
    <hkern u1="&#xf2;" u2="&#xe5;" k="13" />
    <hkern u1="&#xf2;" u2="&#xe4;" k="25" />
    <hkern u1="&#xf2;" u2="&#x2e;" k="75" />
    <hkern u1="&#xf2;" u2="&#x2c;" k="50" />
    <hkern u1="&#xf3;" u2="&#xf1;" k="37" />
    <hkern u1="&#xf3;" u2="&#xee;" k="37" />
    <hkern u1="&#xf3;" u2="&#xeb;" k="50" />
    <hkern u1="&#xf3;" u2="&#xe4;" k="25" />
  </font>
</defs></svg>
